[
    {
       "pkcadempre": "73792",
       "fkempresa": "16365",
       "nome": "Vivre Itaipava Résidences",
       "endereco": "RUA NEUZA GOULART BRIZOLA",
       "numero": "1301",
       "cep": "25750037",
       "bairro": "ITAIPAVA",
       "fase": "6",
       "ano": "2018",
       "dataent": "2021-07-30T00:00:00-03:00",
       "constru": "38155",
       "cidade": "PETRÓPOLIS",
       "estado": "RJ",
       "tipo": "336198",
       "subtipo": "37568",
       "categoria": "64334",
       "principalvenda": "1",
       "principallocalacao": "0",
       "principaldescricao": "Excelente condomínio fechado em terreno de 29.000 mts²,  com 3 tipos de casas a sua escolha, casas de 150 a 213 mts², lineares ou duplex, casas de 4 suítes, sala em 2 ambientes com lareira, varanda, área gourmet com churrasqueia e bancada de pia, jardim privativo, mansarda e garagem.\n Com total infraestrutura de lazer e segurança, conta com guarita e segurança 24 hs, circuito interno de TV, controle de acesso de visitantes, piscina adulto e infantil descoberta, piscina térmica coberta, solário, saunas seca e a vapor com repouso, fitness coberto e ao ar livre, espaço yoga e meditação, casa do tarzan e casa de bonecas, parquinho infantil, salão gourmet com churrasqueira e forno de pizza, salão de festas, salão de jogos, bicicletário, Lounge externo com lareira, pomar com árvores frutíferas, pista de caminhada com 1,3 Km e um lindo Lago.\nNo ar puro da serra, com vista para a pedra do elefante e entre bosques, o Condomínio Vivre Itaipava résidences é composto por exclusivas 40 casas, com três tipologias diferentes e área de lazer lúdica e completa, como Itaipava nunca viu.\nLocalizado em Itaipava um dos mais cobiçados destinos de charme das regiões serranas do Brasil.\nItaipava conta com um clima inigualável, combinando o ar seco e puro de montanha com os recursos de uma grande cidade. É muito próximo do Rio de Janeiro, a apenas uma hora de carro pela melhor autoestrada do estado. Possui um excelente centro gastronômico, considerado um dos mais importantes do país, conhecido como Vale Gourmet.\nO Vivre Itaipava reúne características únicas, aliando tranquilidade, paz e comodidade.",
       "principaldescricaores": "Excelente condomínio fechado em terreno de 29.000 mts²,  com 3 tipos de casas a sua escolha, casas de 150 a 213 mts², lineares ou duplex, casas de 3 e 4 quartos com lareira, varanda, área gourmet com churrasqueia e bancada de pia, jardim privativo e mansarda.\n Com total infraestrutura de lazer e segurança, conta com guarita e segurança 24 hs, circuito interno de TV, controle de acesso de visitantes, piscina adulto e infantil descoberta, piscina térmica coberta, solário, saunas seca e a vapor com repouso, fitness coberto e ao ar livre, espaço yoga e meditação, casa do tarzan e casa de bonecas, parquinho infantil, salão gourmet com churrasqueira e forno de pizza, salão de festas, salão de jogos, bicicletário, Lounge externo com lareira, pomar com árvores frutíferas, pista de caminhada com 1,3 Km e um lindo Lago.",
       "principalsite": "i9imobiliariadigital.com.br",
       "principalemail": "contato@i9imobiliariadigital.com.br",
       "principaldddtelefone": "24",
       "principaltelefone": "99224-8787",
       "principalunidades": "8",
       "principalvalvenda": "839000.0000",
       "detalheareaconst": "150.0000",
       "detalheareautil": "197.0000",
       "detalhemedida": "M2",
       "detalheplayground": "1",
       "detalhequadrasquash": "0",
       "detalhechurrasqueira": "1",
       "detalhequadratenis": "0",
       "detalhequadrapoli": "0",
       "detalheentcaminhoes": "0",
       "detalheagua": "1",
       "detalheesgoto": "1",
       "detalheresagua": "0",
       "detalheestasfaltada": "1",
       "detalherestaurante": "0",
       "detalhefrentemar": "0",
       "detalhesalaofesta": "2",
       "detalhesalaofestainf": "1",
       "detalhepiscina": "1",
       "detalhepiscinfantil": "1",
       "detalhepiscaquecida": "0",
       "detalheestvisitante": "0",
       "detalhesalaginastica": "1",
       "detalhesalaojogos": "1",
       "detalhesauna": "1",
       "detalhepomar": "1",
       "detalhegourmet": "1",
       "detalhesalaestudo": "0",
       "detalhesaladescanso": "0",
       "detalhespa": "0",
       "detalhelounge": "0",
       "detalhebrinquedoteca": "1",
       "detalhefraldario": "1",
       "detalhefornopp": "1",
       "detalheespmulher": "0",
       "detalhevestiario": "0",
       "detalhesolarium": "1",
       "detalhelavabo": "1",
       "detalhedog": "0",
       "detalhefitness": "1",
       "paratime": "2020-08-16T16:14:07-03:00",
       "ultimasunidades": "1",
       "pubdestaque": "1",
       "situacao": "1",
       "detalhequadrapolicob": "0",
       "detalhefutareia": "0",
       "detalhevoleipraia": "0",
       "detalheconveniencia": "0",
       "detalhecascata": "0",
       "detalhelual": "0",
       "detalhecercaelet": "0",
       "detalhemeditacao": "0",
       "detalhelago": "1",
       "detalhepraca": "0",
       "detalhepraiaart": "0",
       "detalheheliporto": "1",
       "detalhesaunaseca": "1",
       "detalhecampogolf": "0",
       "detalheboliche": "0",
       "detalheofuro": "0",
       "detalhelanhouse": "0",
       "detalhebocha": "0",
       "detalhecinema": "0",
       "detalhealarmemoni": "0",
       "detalhemarina": "0",
       "detalhemusichall": "0",
       "detalhehealthy": "0",
       "detalhequiosque": "0",
       "detalhecircuitotv": "0",
       "detalhedeposito": "0",
       "detalheedicula": "0",
       "detalhegascentral": "0",
       "detalhegradil": "0",
       "detalheinterfone": "1",
       "detalheportaoelet": "1",
       "detalhepilotis": "0",
       "detalheportaria": "0",
       "detalheportaria24h": "1",
       "detalheseguranca": "0",
       "detalheterraco": "0",
       "detalhezelador": "0",
       "detalheelevadorsem": "0",
       "detalhesensorpres": "0",
       "principalregiao": "Itaipava",
       "principalpadrao": "SUPER ALTO",
       "principallocalalizacao": "PRIVILEGIADA",
       "principalesquina": "0",
       "detalheporcelanato": "1",
       "detalhepisofrio": "0",
       "detalhegranito": "1",
       "detalhemarmore": "0",
       "detalhemadeira": "1",
       "detalhehalldecorado": "0",
       "detalhegaragembarco": "0",
       "detalheseguranca24hs": "1",
       "detalheentradavis": "0",
       "detalhesalaofestaad": "1",
       "detalhejardim": "1",
       "detalhepiscinaraia": "0",
       "detalhebar": "0",
       "detalhequadrateniscob": "0",
       "detalhecampofutebol": "0",
       "detalhefrentepraca": "0",
       "detalhefrenteshop": "0",
       "detalhefrentesupm": "0",
       "detalhefrenteav": "0",
       "detalhemuro": "1",
       "detalheespelhodagua": "0",
       "detalhepraiapriv": "0",
       "detalhehallentrada": "0",
       "principaltotalunidades": "40",
       "tipo2": "134376",
       "principalcondominio": "1",
       "pais": "Brasil",
       "principaldescricaoin": "Casa com 4 suites, sala de TV,  lareira, mansarda para futura expansão, varanda gourmet voltada par o jardim interno, churrasqueira, jardim individual, condomínio com segurança 24horas, bosque interno, jardim diferenciado, completo, lúdico e voltado para o verde.",
       "principaltitle": "Condomínio fechado em Itaipava, com + de 20 itens na área lazer, casas de 4 suítes c/ lareira, espaço gourmet, varanda e jardim privativo.",
       "principalkeywords": "Casas em Itaipava,casa de condomínio,casa em condomínio fechado em Itaipava,casas em condomínio fechado em Itaipava 4 suítes,casas cond Itaipava + de 20 itens lazer",
       "principaldescription": "Condomínio fechado em Itaipava, com + de 20 itens na área lazer, casas de 4 suítes c/ lareira, espaço gourmet, varanda e jardim privativo.",
       "fkmoeda": "45015"
    },
    {
       "pkcadempre": "78771",
       "fkempresa": "16365",
       "nome": "Vila Verde Residencial",
       "endereco": "RUA DOMINGOS JOSÉ MARTINS",
       "numero": "495",
       "cep": "25725110",
       "bairro": "Itaipava",
       "fase": "7",
       "ano": "1900",
       "constru": "38160",
       "cidade": "PETRÓPOLIS",
       "estado": "RJ",
       "tipo": "336198",
       "subtipo": "37568",
       "categoria": "64340",
       "principalvenda": "1",
       "principallocalacao": "0",
       "principaldescricao": "Condomínio fechado de casas, de 2 e 3 quartos, com uma bela arquitetura.\nCasas com sala, cozinha Americana, lavabo, área de serviço, 2 ou 3 quartos sendo 1 suíte, garagem, jardim privativo e terreno onde há a possibilidade de ampliação com área gourmet, piscina, etc...\nO Vila Verde Residencial encontra-se em uma localização privilegiada com entradas pela BR-040 e também através da Estrada União e Indústria. Possui natureza exuberante, lazer completo, excelente localização e duas opções de projeto. Casas de 2 ou 3 quartos com vaga de garagem e opção de lareira no seu projeto.\nA área de lazer é o lugar de descanso e confraternização junto aos seus familiares e amigos, por isso projetou-se um lugar aconchegante e interativo para que todos possam aproveitar e se divertir. Possui Clube completo com piscina de Adulto e Infantil, sauna c/ sala de Repouso, Playground, Churrrasqueira, Forno de Pizza e Salão de Festas.",
       "principaldescricaores": "Condomínio fechado de casas, de 2 e 3 quartos, com uma bela arquitetura.\nCasas com sala, cozinha Americana, lavabo, área de serviço, 2 ou 3 quartos sendo 1 suíte, garagem, jardim privativo e terreno onde há a possibilidade de ampliação com área gourmet, piscina, etc...\nLocalização privilegiada com entradas pela BR-040 e também através da Estrada União e Indústria.\nPossui uma área de lazer completa com piscina de Adulto e Infantil, sauna c/ sala de Repouso, Playground, Churrrasqueira, Forno de Pizza e Salão de Festas.",
       "principalsite": "i9imobiliariadigital.com.br",
       "principalemail": "conta@i9imobiliariadigital.com.br",
       "principaldddtelefone": "24",
       "principaltelefone": "99224-8787",
       "principalunidades": "10",
       "principalvalvenda": "695000.0000",
       "principalarquitetonico": "Alex Antunes",
       "principalpaisagismo": "Arteiro",
       "detalheareaconst": "7000.0000",
       "detalheareautil": "7000.0000",
       "detalheareaterreno": "7000.0000",
       "detalhemedida": "M2",
       "detalheplayground": "0",
       "detalhequadrasquash": "0",
       "detalhechurrasqueira": "1",
       "detalhequadratenis": "0",
       "detalhequadrapoli": "0",
       "detalheentcaminhoes": "0",
       "detalheagua": "1",
       "detalheesgoto": "1",
       "detalheresagua": "0",
       "detalheestasfaltada": "0",
       "detalherestaurante": "0",
       "detalhefrentemar": "0",
       "detalhesalaofesta": "1",
       "detalhepiscina": "1",
       "detalhepiscinfantil": "1",
       "detalhepiscaquecida": "0",
       "detalheestvisitante": "0",
       "detalhesalaginastica": "0",
       "detalhesalaojogos": "0",
       "detalhesauna": "1",
       "detalhepomar": "0",
       "detalhegourmet": "0",
       "detalhesalaestudo": "0",
       "detalhesaladescanso": "1",
       "detalhespa": "0",
       "detalhelounge": "0",
       "detalhebrinquedoteca": "0",
       "detalhefraldario": "0",
       "detalhefornopp": "1",
       "detalheespmulher": "0",
       "detalhevestiario": "0",
       "detalhesolarium": "0",
       "detalhelavabo": "0",
       "detalhedog": "0",
       "detalhefitness": "0",
       "paratime": "2020-08-27T09:55:20-03:00",
       "ultimasunidades": "0",
       "pubdestaque": "1",
       "situacao": "1",
       "detalhequadrapolicob": "0",
       "detalhefutareia": "0",
       "detalhevoleipraia": "0",
       "detalheconveniencia": "0",
       "detalhecascata": "0",
       "detalhelual": "0",
       "detalhecercaelet": "0",
       "detalhemeditacao": "0",
       "detalhelago": "0",
       "detalhepraca": "0",
       "detalhepraiaart": "0",
       "detalheheliporto": "0",
       "detalhesaunaseca": "1",
       "detalhecampogolf": "0",
       "detalheboliche": "0",
       "detalheofuro": "0",
       "detalhelanhouse": "0",
       "detalhebocha": "0",
       "detalhecinema": "0",
       "detalhealarmemoni": "0",
       "detalhemarina": "0",
       "detalhemusichall": "0",
       "detalhehealthy": "0",
       "detalhequiosque": "0",
       "detalhecircuitotv": "0",
       "detalhedeposito": "0",
       "detalheedicula": "0",
       "detalhegascentral": "1",
       "detalhegradil": "0",
       "detalheinterfone": "1",
       "detalheportaoelet": "1",
       "detalhepilotis": "0",
       "detalheportaria": "0",
       "detalheportaria24h": "1",
       "detalheseguranca": "0",
       "detalheterraco": "0",
       "detalhezelador": "0",
       "detalheelevadorsem": "0",
       "detalhesensorpres": "0",
       "principalregiao": "Itaipava",
       "principalpadrao": "ALTO",
       "principallocalalizacao": "ÓTIMA",
       "principalesquina": "0",
       "detalheporcelanato": "1",
       "detalhepisofrio": "0",
       "detalhegranito": "0",
       "detalhemarmore": "0",
       "detalhemadeira": "1",
       "detalhehalldecorado": "0",
       "detalhegaragembarco": "0",
       "detalheseguranca24hs": "1",
       "detalheentradavis": "0",
       "detalhesalaofestaad": "1",
       "detalhejardim": "1",
       "detalhepiscinaraia": "0",
       "detalhebar": "0",
       "detalhequadrateniscob": "0",
       "detalhecampofutebol": "0",
       "detalhefrentepraca": "0",
       "detalhefrenteshop": "0",
       "detalhefrentesupm": "0",
       "detalhefrenteav": "0",
       "detalhemuro": "0",
       "detalheespelhodagua": "0",
       "detalhepraiapriv": "0",
       "detalhehallentrada": "0",
       "principaltotalunidades": "25",
       "principalandares": "2",
       "principalcondominio": "1",
       "pais": "Brasil",
       "principaltitle": "Casa de 2 ou 3 quartos em condomínio fechado em Itaipava, com lazer completo e excelente localização.",
       "principalkeywords": "casa condomínio fechado Itaipava, casa 3 quartos Itaipava, casa 2 quartos Itaipava,Casa 2/3 quartos condomínio fechado em Itaipava,casa condomínio fechado Itaipava",
       "principaldescription": "Casa de 2 ou 3 quartos em condomínio fechado em Itaipava, com lazer completo e excelente localização.",
       "principalvalcondominio": "400.00",
       "fkmoeda": "45015"
    },
    {
       "pkcadempre": "78766",
       "fkempresa": "16365",
       "nome": "Terras Altas",
       "endereco": "Estrada União e Indústria",
       "numero": "26000",
       "cep": "25770000",
       "bairro": "Pedro do Rio",
       "fase": "8",
       "ano": "2017",
       "dataent": "2019-06-01T00:00:00-03:00",
       "constru": "38156",
       "cidade": "Petrópolis",
       "estado": "RJ",
       "tipo": "134377",
       "subtipo": "37568",
       "categoria": "64334",
       "principalvenda": "1",
       "principallocalacao": "0",
       "principaldescricao": "Com apenas 85 terrenos de 2.500m² a 5.450m² e topografia especial, o Terras Altas, em Pedro do Rio, proporciona uma vista excepcional com mais de 900m de altitude, acima de todos os empreendimentos da região, onde o homem urbano põe-se em contato com a paz e a privacidade de deslumbrantes paisagens prontas a recebê-lo da agitação e do stress diário, com segurança permanente, a comodidade ágil de um heliponto projetado e o lazer ilimitado de um clube completo em funcionamento. Tudo isso em plena serra de Itaipava, embalado por um dos melhores climas do mundo.\nTodos os terrenos possuem vista deslumbrante, em um grande platô com vizinhança de plantas , flores, pássaros e animais silvestres. Tudo isso há uma hora do Rio de Janeiro, com privacidade e segurança 24horas.\nUrbanização completa para a construção de Casas.\nEm estilo de Castelo Escocês, o Highand Club é a sede social do empreendimento, cercado por jardins, fontes e lagos. Restaurantes, salão de jogos e estar, ftness, sauna e ofurô. E para que o seu lazer seja completo possuirá quadra de tênis, campo de futebol e um centro equestre bem ao lado. \nE para os pequenos a Magia da Terra das Crianças. Um mundo de fantasia e diversões como a casa do Tarzan, Casa de Bonecas, um forte medieval e um playground ecológico",
       "principalemail": "contato@i9imobiliariadigital.com.br",
       "principaldddtelefone": "24",
       "principaltelefone": "99224-8787",
       "principalvalvenda": "380000.0000",
       "detalheareaterreno": "3500.0000",
       "detalhemedida": "M2",
       "detalheplayground": "1",
       "detalhequadrasquash": "0",
       "detalhechurrasqueira": "0",
       "detalhequadratenis": "1",
       "detalhequadrapoli": "0",
       "detalheentcaminhoes": "0",
       "detalheagua": "1",
       "detalheesgoto": "1",
       "detalheresagua": "0",
       "detalheestasfaltada": "0",
       "detalherestaurante": "1",
       "detalhefrentemar": "0",
       "detalhesalaofesta": "2",
       "detalhesalaofestainf": "1",
       "detalhepiscina": "1",
       "detalhepiscinfantil": "1",
       "detalhepiscaquecida": "0",
       "detalheestvisitante": "0",
       "detalhesalaginastica": "0",
       "detalhesalaojogos": "1",
       "detalhesauna": "0",
       "detalhepomar": "1",
       "detalhegourmet": "0",
       "detalhesalaestudo": "0",
       "detalhesaladescanso": "0",
       "detalhespa": "1",
       "detalhelounge": "0",
       "detalhebrinquedoteca": "1",
       "detalhefraldario": "1",
       "detalhefornopp": "0",
       "detalheespmulher": "0",
       "detalhevestiario": "0",
       "detalhesolarium": "0",
       "detalhelavabo": "0",
       "detalhedog": "0",
       "detalhefitness": "1",
       "paratime": "2020-09-16T17:35:26-03:00",
       "ultimasunidades": "0",
       "pubdestaque": "1",
       "situacao": "1",
       "detalhequadrapolicob": "0",
       "detalhefutareia": "0",
       "detalhevoleipraia": "0",
       "detalheconveniencia": "0",
       "detalhecascata": "0",
       "detalhelual": "0",
       "detalhecercaelet": "0",
       "detalhemeditacao": "0",
       "detalhelago": "1",
       "detalhepraca": "1",
       "detalhepraiaart": "0",
       "detalheheliporto": "1",
       "detalhesaunaseca": "0",
       "detalhecampogolf": "0",
       "detalheboliche": "0",
       "detalheofuro": "1",
       "detalhelanhouse": "0",
       "detalhebocha": "0",
       "detalhecinema": "0",
       "detalhealarmemoni": "0",
       "detalhemarina": "0",
       "detalhemusichall": "0",
       "detalhehealthy": "0",
       "detalhequiosque": "0",
       "detalhecircuitotv": "0",
       "detalhedeposito": "0",
       "detalheedicula": "0",
       "detalhegascentral": "0",
       "detalhegradil": "0",
       "detalheinterfone": "0",
       "detalheportaoelet": "0",
       "detalhepilotis": "0",
       "detalheportaria": "0",
       "detalheportaria24h": "1",
       "detalheseguranca": "0",
       "detalheterraco": "0",
       "detalhezelador": "0",
       "detalheelevadorsem": "0",
       "detalhesensorpres": "0",
       "principalregiao": "Itaipava",
       "principalpadrao": "ALTO",
       "principallocalalizacao": "PRIVILEGIADA",
       "principalesquina": "0",
       "detalheporcelanato": "0",
       "detalhepisofrio": "0",
       "detalhegranito": "0",
       "detalhemarmore": "0",
       "detalhemadeira": "0",
       "detalhehalldecorado": "0",
       "detalhegaragembarco": "0",
       "detalheseguranca24hs": "1",
       "detalheentradavis": "0",
       "detalhesalaofestaad": "1",
       "detalhejardim": "1",
       "detalhepiscinaraia": "0",
       "detalhebar": "0",
       "detalhequadrateniscob": "0",
       "detalhecampofutebol": "1",
       "detalhefrentepraca": "0",
       "detalhefrenteshop": "0",
       "detalhefrentesupm": "0",
       "detalhefrenteav": "0",
       "detalhemuro": "0",
       "detalheespelhodagua": "0",
       "detalhepraiapriv": "0",
       "detalhehallentrada": "0",
       "principalcondominio": "1",
       "pais": "Brasil",
       "principalkeywords": "terreno, Itaipava, região serrana",
       "fkmoeda": "45015"
    },
    {
       "pkcadempre": "86486",
       "fkempresa": "16365",
       "nome": "Seven Casas Personalizadas",
       "endereco": "ESTRADA UNIÃO E INDÚSTRIA",
       "numero": "9153",
       "cep": "25730736",
       "bairro": "ITAIPAVA",
       "fase": "10",
       "ano": "2021",
       "cidade": "PETRÓPOLIS",
       "estado": "RJ",
       "tipo": "134376",
       "subtipo": "37568",
       "categoria": "64340",
       "principalvenda": "1",
       "principallocalacao": "0",
       "principaldescricao": "O conceito desse empreendimento é trazer projetos contemporâneos de um arquiteto renomado e com assinaturas únicas para cada imóvel. Com fino acabamento e ambientes integrados, você poderá viver momentos de felicidade com amigos e familiares. Cercado de muito verde irá entregar a paz e tranquilidade para renovar suas forças e revigorar o seu espírito.\n\nVocê conhece a beleza de Itaipava? Já pensou em morar em uma casa de alto padrão nessa localização privilegiada pela natureza? O Seven é um empreendimento da Azul Incorporações na Granja Brasil, oferecendo localização excelente e que traz casas de alto padrão para Itaipava-RJ. A localização privilegiada reúne natureza, ar puro, lazer, segurança e excelente gastronomia. Se você quer morar em um lugar seguro sem abrir mão do conforto e da segurança, Seven tem casas personalizadas com 3 ou 4 suítes.",
       "principaldescricaores": "O conceito desse empreendimento é trazer projetos contemporâneos de um arquiteto renomado e com assinaturas únicas para cada imóvel. Com fino acabamento e ambientes integrados, você poderá viver momentos de felicidade com amigos e familiares. Cercado de muito verde irá entregar a paz e tranquilidade para renovar suas forças e revigorar o seu espírito.",
       "principalemail": "contato@i9imobiliariadigital.com.br",
       "principaldddtelefone": "24",
       "principaltelefone": "99224-8787",
       "principalunidades": "4",
       "principalvalvenda": "2900000.0000",
       "detalhemedida": "M2",
       "detalheplayground": "0",
       "detalhequadrasquash": "0",
       "detalhechurrasqueira": "1",
       "detalhequadratenis": "1",
       "detalhequadrapoli": "1",
       "detalheentcaminhoes": "0",
       "detalheagua": "0",
       "detalheesgoto": "0",
       "detalheresagua": "0",
       "detalheestasfaltada": "1",
       "detalherestaurante": "1",
       "detalhefrentemar": "0",
       "detalhesalaofesta": "1",
       "detalhepiscina": "1",
       "detalhepiscinfantil": "1",
       "detalhepiscaquecida": "0",
       "detalheestvisitante": "0",
       "detalhesalaginastica": "0",
       "detalhesalaojogos": "0",
       "detalhesauna": "0",
       "detalhepomar": "0",
       "detalhegourmet": "1",
       "detalhesalaestudo": "0",
       "detalhesaladescanso": "0",
       "detalhespa": "0",
       "detalhelounge": "0",
       "detalhebrinquedoteca": "0",
       "detalhefraldario": "0",
       "detalhefornopp": "0",
       "detalheespmulher": "0",
       "detalhevestiario": "0",
       "detalhesolarium": "0",
       "detalhelavabo": "0",
       "detalhedog": "0",
       "detalhefitness": "1",
       "paratime": "2021-01-06T11:45:09-03:00",
       "ultimasunidades": "0",
       "pubdestaque": "1",
       "situacao": "1",
       "detalhequadrapolicob": "0",
       "detalhefutareia": "0",
       "detalhevoleipraia": "0",
       "detalheconveniencia": "0",
       "detalhecascata": "0",
       "detalhelual": "0",
       "detalhecercaelet": "0",
       "detalhemeditacao": "0",
       "detalhelago": "0",
       "detalhepraca": "0",
       "detalhepraiaart": "0",
       "detalheheliporto": "0",
       "detalhesaunaseca": "0",
       "detalhecampogolf": "0",
       "detalheboliche": "0",
       "detalheofuro": "0",
       "detalhelanhouse": "0",
       "detalhebocha": "0",
       "detalhecinema": "0",
       "detalhealarmemoni": "0",
       "detalhemarina": "0",
       "detalhemusichall": "0",
       "detalhehealthy": "0",
       "detalhequiosque": "0",
       "detalhecircuitotv": "0",
       "detalhedeposito": "0",
       "detalheedicula": "0",
       "detalhegascentral": "0",
       "detalhegradil": "0",
       "detalheinterfone": "0",
       "detalheportaoelet": "0",
       "detalhepilotis": "0",
       "detalheportaria": "1",
       "detalheportaria24h": "1",
       "detalheseguranca": "1",
       "detalheterraco": "0",
       "detalhezelador": "0",
       "detalheelevadorsem": "0",
       "detalhesensorpres": "0",
       "principalregiao": "Itaipava",
       "principalpadrao": "SUPER ALTO",
       "principallocalalizacao": "PRIVILEGIADA",
       "principalesquina": "0",
       "detalheporcelanato": "0",
       "detalhepisofrio": "0",
       "detalhegranito": "0",
       "detalhemarmore": "0",
       "detalhemadeira": "0",
       "detalhehalldecorado": "0",
       "detalhegaragembarco": "0",
       "detalheseguranca24hs": "1",
       "detalheentradavis": "0",
       "detalhesalaofestaadinf": "0",
       "detalhesalaofestaad": "1",
       "detalhejardim": "0",
       "detalhepiscinaraia": "0",
       "detalhebar": "0",
       "detalhequadrateniscob": "0",
       "detalhecampofutebol": "0",
       "detalhefrentepraca": "0",
       "detalhefrenteshop": "0",
       "detalhefrentesupm": "0",
       "detalhefrenteav": "0",
       "detalhemuro": "0",
       "detalheespelhodagua": "0",
       "detalhepraiapriv": "0",
       "detalhehallentrada": "0",
       "principaltotalunidades": "7",
       "principalcondominio": "1",
       "principalcomplemento": "Condomínio Granja Brasil",
       "pais": "Brasil",
       "principaltitle": "Casas Exclusivas Personalizadas em Localização Privilegiada no Coração de Itaipava Dentro do Granja Brasil.",
       "principalkeywords": "Casas a Venda Petrópolis Itaipava, Casas a Venda na Granja Brasil Petrópolis Itaipava, Casas Alto Padrão a Venda na Granja Brasil Petrópolis Itaipava",
       "principaldescription": "Casas a Venda Petrópolis Itaipava, Casas a Venda na Granja Brasil Petrópolis Itaipava, Casas Alto Padrão a Venda na Granja Brasil Petrópolis Itaipava",
       "principalvalcondominio": "600.00",
       "fkmoeda": "45015"
    },
    {
       "pkcadempre": "81551",
       "fkempresa": "16365",
       "nome": "Condomínio Pedra do Retiro",
       "endereco": "RUA HENRIQUE DIAS",
       "cep": "25680301",
       "bairro": "RETIRO",
       "fase": "10",
       "ano": "2020",
       "cidade": "PETRÓPOLIS",
       "estado": "RJ",
       "tipo": "134376",
       "subtipo": "37568",
       "categoria": "64340",
       "principalvenda": "1",
       "principallocalacao": "0",
       "principaldescricao": "Condomínio localizado no bairro Retiro, em uma rua de pouco movimento. Próximo ao Centro Histórico de Petrópolis, de fácil acesso pelo transporte público e a poucos minutos a pé de um centro comercial com padarias, supermercados e utilidades em geral.\n\nEm meio a uma paisagem típica da Serra de Petrópolis o condomínio conta com portaria 24 horas, piscina, SPA, espaço gourmet, quadra poliesportiva, reserva florestal e uma vista espetacular das montanhas, garantindo aos moradores equilíbrio entre uma vida moderna, prática e confortável.\n\nAs casas são de 4 suítes, cozinha, sala de estar, sala de jantar, lavabo, quarto de serviço, varanda, terraço e garagem coberta para 2 carros.",
       "principaldescricaores": "Em meio a uma paisagem típica da Serra de Petrópolis o condomínio conta com portaria 24 horas, piscina, SPA, espaço gourmet, quadra poliesportiva, reserva florestal e uma vista espetacular das montanhas, garantindo aos moradores equilíbrio entre uma vida moderna, prática e confortável.\n\nAs casas são de 4 suítes, cozinha, sala de estar, sala de jantar, lavabo, quarto de serviço, varanda, terraço e garagem coberta para 2 carros.",
       "principalsite": "https://i9imobiliariadigital.com.br",
       "principalemail": "contato@i9imobiliariadigital.com.br",
       "principaldddtelefone": "24",
       "principaltelefone": "99224-8787",
       "principalvalvenda": "1400000.0000",
       "detalhemedida": "M2",
       "detalheplayground": "0",
       "detalhequadrasquash": "0",
       "detalhechurrasqueira": "0",
       "detalhequadratenis": "0",
       "detalhequadrapoli": "1",
       "detalheentcaminhoes": "0",
       "detalheagua": "1",
       "detalheesgoto": "1",
       "detalheresagua": "0",
       "detalheestasfaltada": "1",
       "detalherestaurante": "0",
       "detalhefrentemar": "0",
       "detalhepiscina": "1",
       "detalhepiscinfantil": "0",
       "detalhepiscaquecida": "0",
       "detalheestvisitante": "0",
       "detalhesalaginastica": "0",
       "detalhesalaojogos": "0",
       "detalhesauna": "0",
       "detalhepomar": "0",
       "detalhegourmet": "1",
       "detalhesalaestudo": "0",
       "detalhesaladescanso": "0",
       "detalhespa": "1",
       "detalhelounge": "0",
       "detalhebrinquedoteca": "0",
       "detalhefraldario": "0",
       "detalhefornopp": "0",
       "detalheespmulher": "0",
       "detalhevestiario": "0",
       "detalhesolarium": "0",
       "detalhelavabo": "0",
       "detalhedog": "0",
       "detalhefitness": "0",
       "paratime": "2021-01-08T14:40:27-03:00",
       "ultimasunidades": "0",
       "pubdestaque": "1",
       "situacao": "1",
       "detalhequadrapolicob": "0",
       "detalhefutareia": "0",
       "detalhevoleipraia": "0",
       "detalheconveniencia": "0",
       "detalhecascata": "0",
       "detalhelual": "0",
       "detalhecercaelet": "0",
       "detalhemeditacao": "0",
       "detalhelago": "0",
       "detalhepraca": "0",
       "detalhepraiaart": "0",
       "detalheheliporto": "0",
       "detalhesaunaseca": "0",
       "detalhecampogolf": "0",
       "detalheboliche": "0",
       "detalheofuro": "0",
       "detalhelanhouse": "0",
       "detalhebocha": "0",
       "detalhecinema": "0",
       "detalhealarmemoni": "0",
       "detalhemarina": "0",
       "detalhemusichall": "0",
       "detalhehealthy": "0",
       "detalhequiosque": "0",
       "detalhecircuitotv": "0",
       "detalhedeposito": "0",
       "detalheedicula": "0",
       "detalhegascentral": "0",
       "detalhegradil": "0",
       "detalheinterfone": "1",
       "detalheportaoelet": "0",
       "detalhepilotis": "0",
       "detalheportaria": "1",
       "detalheportaria24h": "1",
       "detalheseguranca": "0",
       "detalheterraco": "0",
       "detalhezelador": "0",
       "detalheelevadorsem": "0",
       "detalhesensorpres": "0",
       "principalregiao": "Região Serrana",
       "principalpadrao": "ALTO",
       "principallocalalizacao": "ÓTIMA",
       "principalesquina": "0",
       "detalheporcelanato": "0",
       "detalhepisofrio": "0",
       "detalhegranito": "0",
       "detalhemarmore": "0",
       "detalhemadeira": "0",
       "detalhehalldecorado": "0",
       "detalhegaragembarco": "0",
       "detalheseguranca24hs": "0",
       "detalheentradavis": "0",
       "detalhejardim": "0",
       "detalhepiscinaraia": "0",
       "detalhebar": "0",
       "detalhequadrateniscob": "0",
       "detalhecampofutebol": "0",
       "detalhefrentepraca": "0",
       "detalhefrenteshop": "0",
       "detalhefrentesupm": "0",
       "detalhefrenteav": "0",
       "detalhemuro": "0",
       "detalheespelhodagua": "0",
       "detalhepraiapriv": "0",
       "detalhehallentrada": "0",
       "principaltotalunidades": "15",
       "principalcondominio": "1",
       "pais": "Brasil",
       "principaltitle": "Casas com 4 Quartos a Venda em Condomínio Fechado em Petrópolis / RJ",
       "principalkeywords": "Casas a Venda em Condomínio Fechado em Petrópolis, Casas com 4 quartos a Venda em Condomínio em Petrópolis, Casas a Venda em Condomínio em Petrópolis",
       "principaldescription": "Casas a Venda em Condomínio Fechado em Petrópolis, Casas com 4 quartos a Venda em Condomínio em Petrópolis, Casas a Venda em Condomínio em Petrópolis",
       "fkmoeda": "45015"
    },
    {
       "pkcadempre": "43947",
       "fkempresa": "16365",
       "nome": "Aldeia Itaipava",
       "endereco": "RUA NEUZA GOULART BRIZOLA",
       "numero": "200",
       "cep": "25750037",
       "bairro": "ITAIPAVA",
       "fase": "8",
       "ano": "2018",
       "constru": "35079",
       "incol": "27480",
       "cidade": "PETRÓPOLIS",
       "estado": "RJ",
       "tipo": "336198",
       "subtipo": "37568",
       "categoria": "64334",
       "nomeshop": "A 5 minutos do centro de Itaipava",
       "principalvenda": "1",
       "principallocalacao": "0",
       "principaldescricao": "Condomínio fechado, com 6 modelos de casas diferentes, em arquitetura contemporânea, casas de \n82 mts² à 220 mts ², que variam de 1 à 4 quartos.\nGuarita com segurança 24 horas e total infraestrutura de lazer,  piscina adulto e infantil, sauna à vapor, espaço fitness, àrea gourmet( churrasqueira, forno de pizza, cozinha, salão e banheiros), espaço kids,  Fire Place (lareira externa), espaço Yoga, espaço massagem, horta comunitária,ducha natural, campo de futebol gramado c/ uma 2° área de churrasqueira c/mesas e área de convivência e muito verde.\nCondomínio sustentável c/ telhados verdes, coleta de lixo seletiva, sistema de compostagem para lixo orgânico,  estacionamento de visitantes, etc..\nLocalização privilegiada, c/ saídas estratégicas para a BR040, com muita natureza, muito verde e tranquilidade.",
       "principaldescricaores": "Condomínio fechado, com 6 tipos de casas diferentes, em arquitetura contemporânea, casas de 82 mts² à\n220 mts ², de 1 à 4 quartos e com infraestrutura de lazer completa.",
       "principalsite": "aldeiaitaipava.com.br",
       "principalemail": "contato@i9imobiliariadigital.com.br",
       "principaldddtelefone": "24",
       "principaltelefone": "99224-8787",
       "principalunidades": "12",
       "principalvalvenda": "422000.0000",
       "principalarquitetonico": "Luis Otávio de Oliveira",
       "principalpaisagismo": "Bia Pedrini",
       "detalheareaconst": "50000.0000",
       "detalheareautil": "50000.0000",
       "detalheareaterreno": "80000.0000",
       "detalhemedida": "M2",
       "detalheplayground": "1",
       "detalhequadrasquash": "0",
       "detalhechurrasqueira": "1",
       "detalhequadratenis": "0",
       "detalhequadrapoli": "0",
       "detalheentcaminhoes": "1",
       "detalheagua": "1",
       "detalheesgoto": "1",
       "detalheresagua": "1",
       "detalheestasfaltada": "1",
       "detalherestaurante": "0",
       "detalhefrentemar": "0",
       "detalhesalaofesta": "1",
       "detalhepiscina": "1",
       "detalhepiscinfantil": "1",
       "detalhepiscaquecida": "0",
       "detalheestvisitante": "1",
       "detalhesalaginastica": "1",
       "detalhesalaojogos": "0",
       "detalhesauna": "1",
       "detalhepomar": "0",
       "detalhegourmet": "1",
       "detalhesalaestudo": "0",
       "detalhesaladescanso": "1",
       "detalhespa": "0",
       "detalhelounge": "0",
       "detalhebrinquedoteca": "1",
       "detalhefraldario": "1",
       "detalhefornopp": "1",
       "detalheespmulher": "0",
       "detalhevestiario": "1",
       "detalhesolarium": "1",
       "detalhelavabo": "1",
       "detalhedog": "0",
       "detalhefitness": "1",
       "paratime": "2021-03-17T16:39:18-03:00",
       "ultimasunidades": "1",
       "pubdestaque": "1",
       "situacao": "0",
       "detalhequadrapolicob": "0",
       "detalhefutareia": "0",
       "detalhevoleipraia": "0",
       "detalheconveniencia": "0",
       "detalhecascata": "0",
       "detalhelual": "0",
       "detalhecercaelet": "0",
       "detalhemeditacao": "1",
       "detalhelago": "0",
       "detalhepraca": "0",
       "detalhepraiaart": "0",
       "detalheheliporto": "0",
       "detalhesaunaseca": "0",
       "detalhecampogolf": "0",
       "detalheboliche": "0",
       "detalheofuro": "0",
       "detalhelanhouse": "0",
       "detalhebocha": "0",
       "detalhecinema": "0",
       "detalhealarmemoni": "0",
       "detalhemarina": "0",
       "detalhemusichall": "0",
       "detalhehealthy": "0",
       "detalhequiosque": "0",
       "detalhecircuitotv": "1",
       "detalhedeposito": "0",
       "detalheedicula": "0",
       "detalhegascentral": "1",
       "detalhegradil": "0",
       "detalheinterfone": "0",
       "detalheportaoelet": "1",
       "detalhepilotis": "0",
       "detalheportaria": "1",
       "detalheportaria24h": "1",
       "detalheseguranca": "1",
       "detalheterraco": "0",
       "detalhezelador": "0",
       "detalheelevadorsem": "1",
       "detalhesensorpres": "1",
       "principalregiao": "Região Serrana",
       "principalpadrao": "ALTO",
       "principallocalalizacao": "PRIVILEGIADA",
       "principalesquina": "1",
       "detalheporcelanato": "1",
       "detalhepisofrio": "0",
       "detalhegranito": "0",
       "detalhemarmore": "0",
       "detalhemadeira": "0",
       "detalhehalldecorado": "0",
       "detalhegaragembarco": "0",
       "detalheseguranca24hs": "1",
       "detalheentradavis": "0",
       "detalhesalaofestaad": "1",
       "detalhejardim": "1",
       "detalhepiscinaraia": "0",
       "detalhebar": "0",
       "detalhequadrateniscob": "0",
       "detalhecampofutebol": "1",
       "detalhefrentepraca": "0",
       "detalhefrenteshop": "0",
       "detalhefrentesupm": "0",
       "detalhefrenteav": "0",
       "detalhemuro": "0",
       "detalheespelhodagua": "0",
       "detalhepraiapriv": "0",
       "detalhehallentrada": "0",
       "principaltotalunidades": "54",
       "tipo2": "134376",
       "tipo3": "336470",
       "tipo4": "134377",
       "locallatitude": [],
       "locallongitude": [],
       "principalcondominio": "1",
       "pais": "Brasil",
       "principaltitle": "Casas e lofts em Itaipava, condomínio fechado, com total infraestrutura de lazer.",
       "principalkeywords": "Casas Itaipava, Casas Itaipava condomínio fechado, Casas e lofts em Itaipava condomínio fechado com total infraestrutura de lazer,Condomínio fechado Itaipava.",
       "principaldescription": "Condomínio fechado, com 6 modelos de casas diferentes, em arquitetura contemporânea, casas de \n82 mts² à 220 mts ², que variam de 1 à 4 quartos.\nGuarita com segurança 24",
       "principalvalcondominio": "600.00",
       "fkmoeda": "45015"
    },
    {
       "pkcadempre": "86702",
       "fkempresa": "16365",
       "nome": "Santo Ignácio",
       "endereco": "ESTRADA DAS ARCAS",
       "cep": "25745122",
       "bairro": "ITAIPAVA",
       "fase": "10",
       "ano": "2020",
       "cidade": "PETRÓPOLIS",
       "estado": "RJ",
       "tipo": "134377",
       "subtipo": "37568",
       "categoria": "64334",
       "principalvenda": "1",
       "principallocalacao": "0",
       "principaldescricao": "O Condomínio Santo Ignácio está localizado a 5 minutos do centro de Itaipava/RJ. Com uma vista deslumbrante para muito Verde, possui terrenos a partir de 1250m² e com ótima topografia. Excelente opção para quem quer paz e tranquilidade e com o clima típico da Serra.",
       "principaldescricaores": "O Condomínio Santo Ignácio está localizado a 5 minutos do centro de Itaipava/RJ. Com uma vista deslumbrante para muito Verde, possui terrenos a partir de 1250m² e com ótima topografia. Excelente opção para quem quer paz e tranquilidade e com o clima típico da Serra.",
       "principalemail": "contato@i9imobiliariadigital.com.br",
       "principaldddtelefone": "24",
       "principaltelefone": "99224-8787",
       "principalunidades": "12",
       "principalvalvenda": "170000.0000",
       "detalhemedida": "M2",
       "detalheplayground": "0",
       "detalhequadrasquash": "0",
       "detalhechurrasqueira": "0",
       "detalhequadratenis": "0",
       "detalhequadrapoli": "0",
       "detalheentcaminhoes": "0",
       "detalheagua": "0",
       "detalheesgoto": "0",
       "detalheresagua": "0",
       "detalheestasfaltada": "0",
       "detalherestaurante": "0",
       "detalhefrentemar": "0",
       "detalhepiscina": "0",
       "detalhepiscinfantil": "0",
       "detalhepiscaquecida": "0",
       "detalheestvisitante": "0",
       "detalhesalaginastica": "0",
       "detalhesalaojogos": "0",
       "detalhesauna": "0",
       "detalhepomar": "0",
       "detalhegourmet": "0",
       "detalhesalaestudo": "0",
       "detalhesaladescanso": "0",
       "detalhespa": "0",
       "detalhelounge": "0",
       "detalhebrinquedoteca": "0",
       "detalhefraldario": "0",
       "detalhefornopp": "0",
       "detalheespmulher": "0",
       "detalhevestiario": "0",
       "detalhesolarium": "0",
       "detalhelavabo": "0",
       "detalhedog": "0",
       "detalhefitness": "0",
       "paratime": "2021-03-17T16:49:53-03:00",
       "ultimasunidades": "0",
       "pubdestaque": "1",
       "situacao": "0",
       "detalhequadrapolicob": "0",
       "detalhefutareia": "0",
       "detalhevoleipraia": "0",
       "detalheconveniencia": "0",
       "detalhecascata": "0",
       "detalhelual": "0",
       "detalhecercaelet": "0",
       "detalhemeditacao": "0",
       "detalhelago": "0",
       "detalhepraca": "0",
       "detalhepraiaart": "0",
       "detalheheliporto": "0",
       "detalhesaunaseca": "0",
       "detalhecampogolf": "0",
       "detalheboliche": "0",
       "detalheofuro": "0",
       "detalhelanhouse": "0",
       "detalhebocha": "0",
       "detalhecinema": "0",
       "detalhealarmemoni": "0",
       "detalhemarina": "0",
       "detalhemusichall": "0",
       "detalhehealthy": "0",
       "detalhequiosque": "0",
       "detalhecircuitotv": "0",
       "detalhedeposito": "0",
       "detalheedicula": "0",
       "detalhegascentral": "0",
       "detalhegradil": "0",
       "detalheinterfone": "0",
       "detalheportaoelet": "0",
       "detalhepilotis": "0",
       "detalheportaria": "0",
       "detalheportaria24h": "0",
       "detalheseguranca": "0",
       "detalheterraco": "0",
       "detalhezelador": "0",
       "detalheelevadorsem": "0",
       "detalhesensorpres": "0",
       "principalregiao": "Itaipava",
       "principalpadrao": "ALTO",
       "principallocalalizacao": "ÓTIMA",
       "principalesquina": "0",
       "detalheporcelanato": "0",
       "detalhepisofrio": "0",
       "detalhegranito": "0",
       "detalhemarmore": "0",
       "detalhemadeira": "0",
       "detalhehalldecorado": "0",
       "detalhegaragembarco": "0",
       "detalheseguranca24hs": "0",
       "detalheentradavis": "0",
       "detalhejardim": "0",
       "detalhepiscinaraia": "0",
       "detalhebar": "0",
       "detalhequadrateniscob": "0",
       "detalhecampofutebol": "0",
       "detalhefrentepraca": "0",
       "detalhefrenteshop": "0",
       "detalhefrentesupm": "0",
       "detalhefrenteav": "0",
       "detalhemuro": "0",
       "detalheespelhodagua": "0",
       "detalhepraiapriv": "0",
       "detalhehallentrada": "0",
       "principaltotalunidades": "38",
       "principalcondominio": "0",
       "pais": "Brasil",
       "principaltitle": "Condomínio Santo Ignácio está localizado a 5 minutos do centro de Itaipava/RJ.",
       "principalkeywords": "Terreno a Venda em Itaipava, Terrenos a Venda em Itaipava, Terreno a Venda em Condomínio em Itaipava, Terrenos a Venda em Condomínio em Itaipava",
       "principaldescription": "Terreno a Venda em Itaipava, Terrenos a Venda em Itaipava, Terreno a Venda em Condomínio em Itaipava, Terrenos a Venda em Condomínio em Itaipava",
       "fkmoeda": "45015"
    },
    {
       "pkcadempre": "44175",
       "fkempresa": "16365",
       "nome": "Corrêas Mall",
       "endereco": "ESTRADA UNIÃO E INDÚSTRIA",
       "numero": "5070",
       "cep": "25720113",
       "bairro": "NOGUEIRA",
       "fase": "8",
       "ano": "2018",
       "constru": "35153",
       "cidade": "PETRÓPOLIS",
       "estado": "RJ",
       "tipo": "339851",
       "subtipo": "37566",
       "categoria": "64334",
       "nomeshop": "300 metros de frente de rua.",
       "principalvenda": "0",
       "principallocalacao": "1",
       "principaldescricao": "Excelentes lojas no conceito Stripp Mall, lojas com 55mts²,(podendo fazer junções) com pé direto de 9 mts p criação de mezanino até triplo. Com 300 metros de frente e 180 vagas!\nEstrategicamente localizado na Estrada União e Industria nº 5070, no bairro de Corrêas, empreendimento CORRÊAS MALL tem grande visibilidade e acessibilidade, com capacidade para atender grande fluxo de veículos (em média 1200 veículos por hora) e pessoas que transitam por esta tão vital via, bem como a população dos bairros do entorno.\n\nO empreendimento se conceitua como um STRIPP Mall de 35 Lojas (MÓDULOS) divididas em 7 blocos, com áreas privativas de 55m² de área interna, com altura interna de 9,0m possibilitando a ampliação da área privativa com a criação de mezaninos.\n\nO conceito do empreendimento é perfeito para médias cidades. Atender o tempo e o modo de consumo atual são as melhores características deste empreendimento, ou seja, este conceito de empreendimento é mais dinâmico, inclusive para se chegar e sair.\n\nPossui capacidade para 180 vagas de estacionamento e posiciona-se como um local ideal para instalação de operações comerciais e serviços, tais como Comércio de Alimentos(Mercados), farmácias, Academias, Agências bancárias, Móveis planejados, Clínicas, Vestuário, educação entre outros.\n\nA expectativa é que o Corrêas Mall torne-se um grande centro, de consumo de serviços e de comércio.\nO Corrêas Mall possuirá uma estrutura de ponta com bicicletário, ponto de ônibus, ponto de espera de operadores do UBER etc... \n Acesso facilitado pela extensa faixa frontal de aproximadamente 300 metros e com amplo estacionamento,tendo ainda, acessibilidade adequada as necessidades de portadores de limitações físicas.\nO Corrêas Mall está inserido em uma região já consolidada comercialmente e que recebe atualmente investimentos de 6 grandes empreendimentos imobiliários residenciais. Serão ao todo aproximadamente 1200 novas unidades habitacionais no próximo  ano. Além desses empreendimentos a região é a que potencialmente poderá receber outros grandes empreendimentos residenciais, pois, ainda possui áreas com grande potencial de instalação.\nO Corrêas Mall é uma potencia em termos de ponto comercial hoje e amanhã principalmente!",
       "principaldescricaores": "Excelentes lojas no conceito Stripp Mall, lojas com 55mts²,(podendo fazer junções) com pé direto de 9 mts p criação de mezanino até triplo. Com 300 metros de frente e 180 vagas!",
       "principalemail": "contato@i9imobiliariadigital.com.br",
       "principaldddtelefone": "24",
       "principaltelefone": "99224-8787",
       "principalunidades": "12",
       "principalvallocalacao": "3500.0000",
       "detalheareaconst": "8000.0000",
       "detalheareautil": "1925.0000",
       "detalheareaterreno": "56522.4400",
       "detalhemedida": "M2",
       "detalheplayground": "0",
       "detalhequadrasquash": "0",
       "detalhechurrasqueira": "0",
       "detalhequadratenis": "0",
       "detalhequadrapoli": "0",
       "detalheentcaminhoes": "1",
       "detalheagua": "1",
       "detalheesgoto": "1",
       "detalheresagua": "0",
       "detalheestasfaltada": "0",
       "detalherestaurante": "0",
       "detalhefrentemar": "0",
       "detalhepiscina": "0",
       "detalhepiscinfantil": "0",
       "detalhepiscaquecida": "0",
       "detalheestvisitante": "1",
       "detalhesalaginastica": "0",
       "detalhesalaojogos": "0",
       "detalhesauna": "0",
       "detalhepomar": "0",
       "detalhegourmet": "0",
       "detalhesalaestudo": "0",
       "detalhesaladescanso": "0",
       "detalhespa": "0",
       "detalhelounge": "0",
       "detalhebrinquedoteca": "0",
       "detalhefraldario": "0",
       "detalhefornopp": "0",
       "detalheespmulher": "0",
       "detalhevestiario": "0",
       "detalhesolarium": "0",
       "detalhelavabo": "0",
       "detalhedog": "0",
       "detalhefitness": "0",
       "paratime": "2021-03-17T16:54:10-03:00",
       "ultimasunidades": "1",
       "pubdestaque": "0",
       "situacao": "0",
       "detalhequadrapolicob": "0",
       "detalhefutareia": "0",
       "detalhevoleipraia": "0",
       "detalheconveniencia": "0",
       "detalhecascata": "0",
       "detalhelual": "0",
       "detalhecercaelet": "0",
       "detalhemeditacao": "0",
       "detalhelago": "0",
       "detalhepraca": "0",
       "detalhepraiaart": "0",
       "detalheheliporto": "0",
       "detalhesaunaseca": "0",
       "detalhecampogolf": "0",
       "detalheboliche": "0",
       "detalheofuro": "0",
       "detalhelanhouse": "0",
       "detalhebocha": "0",
       "detalhecinema": "0",
       "detalhealarmemoni": "0",
       "detalhemarina": "0",
       "detalhemusichall": "0",
       "detalhehealthy": "0",
       "detalhequiosque": "0",
       "detalhecircuitotv": "0",
       "detalhedeposito": "0",
       "detalheedicula": "0",
       "detalhegascentral": "0",
       "detalhegradil": "0",
       "detalheinterfone": "0",
       "detalheportaoelet": "0",
       "detalhepilotis": "0",
       "detalheportaria": "0",
       "detalheportaria24h": "0",
       "detalheseguranca": "1",
       "detalheterraco": "0",
       "detalhezelador": "0",
       "detalheelevadorsem": "0",
       "detalhesensorpres": "0",
       "principalregiao": "Região Serrana",
       "detalhepedireito": "9.00",
       "principalpadrao": "ALTO",
       "principallocalalizacao": "PRIVILEGIADA",
       "principalesquina": "1",
       "detalheporcelanato": "0",
       "detalhepisofrio": "0",
       "detalhegranito": "0",
       "detalhemarmore": "0",
       "detalhemadeira": "0",
       "detalhehalldecorado": "0",
       "detalhegaragembarco": "0",
       "detalheseguranca24hs": "0",
       "detalheentradavis": "0",
       "detalhejardim": "0",
       "detalhepiscinaraia": "0",
       "detalhebar": "0",
       "detalhequadrateniscob": "0",
       "detalhecampofutebol": "0",
       "detalhefrentepraca": "0",
       "detalhefrenteshop": "0",
       "detalhefrentesupm": "0",
       "detalhefrenteav": "1",
       "detalhemuro": "0",
       "detalheespelhodagua": "0",
       "detalhepraiapriv": "0",
       "detalhehallentrada": "0",
       "principaltotalunidades": "35",
       "principalandares": "3",
       "tipo2": "134381",
       "tipo3": "134382",
       "locallatitude": "-22.4366759",
       "locallongitude": "-43.13572399999998",
       "principalcondominio": "1",
       "pais": "Brasil",
       "principaltitle": "Lojas 55mts em Corrêas c/ mezanino triplo pode fazer junção",
       "principalkeywords": "lojas Corrêas, lojas de frente, lojas mezanino, lojas junção, lojas aluguel",
       "principaldescription": "Excelentes lojas no conceito Stripp Mall, lojas com 55mts²,(podendo fazer junções) com pé direto de 9 mts p criação de mezanino até triplo. Com 300 metros de frente e 180",
       "fkmoeda": "45015"
    },
    {
       "pkcadempre": "78769",
       "fkempresa": "16365",
       "nome": "Wide Residences",
       "endereco": "AVENIDA JOSÉ LUIZ FERRAZ",
       "cep": "22790587",
       "bairro": "RECREIO DOS BANDEIRANTES",
       "fase": "10",
       "constru": "30767",
       "cidade": "RIO DE JANEIRO",
       "estado": "RJ",
       "tipo": "134375",
       "subtipo": "37568",
       "categoria": "64334",
       "principalvenda": "1",
       "principallocalacao": "0",
       "principaldescricao": "Wide é um empreendimento singular com localização prática em Barra Bonita ao lado do Recreio Shopping. Lançamento Contemporâneo com plantas elegantes e inteligentes. \nO Wide Residences localizado no Recreio dos Bandeirantes é ilustre pela sua urbanização com ruas arborizadas e harmoniosas, bairro popular pela sua sede de surf, outros esportes e campeonatos acontecidos na Praia do Recreio.\nComo meio de locomoção administra linhas de Ônibus e a Trans Oeste conhecido com BRT.\nSem esquecer das Turísticas e Belas Praias, a da Macumba, Abricó que é uma praia exótica, Praia do Meio e a Praia do Perigoso. Para passear e se conscientizar sobre a importância da preservação ambiental tem o Parque Ecológico Chico Mendes.\nComo pólos de entretenimento possui os Shopping do Recreio e o Barra World Shopping que incluem praça de alimentação com opções gourmet, cinema, lojas e boutique.\nComo Centros de Saúde abrange Hospital Rio Mar, Hospital Santa Casa do Recreio e clínicas. E como outras vantagens tem colégios, creches, escolas e Faculdade.\nO Condomínio Wide é pensado e planejado para seu aconchego e praticidade, por isso tem infraestrutura para conexão direta para o Recreio Shooping, com acesso exclusivo e direto para os moradores.\nO Lançamento Wide tem todo tipo de ambiente para o seu prazer como pavimentos somente para seu relaxamento como spa, piscina, sauna, possui também espaços gourmet e churrasqueira, o condomínio apresenta salas de multiuso, fitness e quadras para qualquer modalidade de esporte.\nLançamento Wide Barra Bonita\nDiferenças do Lançamento Wide Residences:\nQuadras Espaçosas (Quadra de Tênis, Quadra de areia, Quadra de diversos esportes)\nAmbiente Social Gourmet\nSala Multiuso\nSala de Reuniões\nCoworking\nPlayground Infantil\nSalão de Jogos\nBrinquedoteca\nPiscina com Borda Infinita\nSpar e Repouso\nSauna\nRedário\nAmbiente Fitness\nAmbiente de Crossfit em área externa\nBicicletário\nPranchário\nBar da Piscina\nChurrasqueira\nAmbiente Take It\nGuarda entregas\nLavanderia Compartilhada\nParque para cachorros\nAmbiente de ferramentas compartilhadas\nInfra-estrutura do Wide Residences:\nInfraestrutura de Lockers para Delivery\nSistema de Portaria Virtual\nCFTV (Circuito Fechado de Televisão)\nServiços On-Demand\nRede e Telefonia IP (Internet Protocol)\nWi-Fi nas áreas usuais\nTomadas para bicicletas e carros elétricos\nAplicativo do Condomínio (Controle, Serviços e Avisos)\nServiços de TV On-Demand",
       "principalemail": "contato@i9imobiliariadigital.com.br",
       "principaldddtelefone": "24",
       "principaltelefone": "99224-8787",
       "detalheareaconst": "80.0000",
       "detalheareautil": "80.0000",
       "detalhemedida": "M2",
       "detalheplayground": "1",
       "detalhequadrasquash": "1",
       "detalhechurrasqueira": "0",
       "detalhequadratenis": "1",
       "detalhequadrapoli": "1",
       "detalheentcaminhoes": "0",
       "detalheagua": "1",
       "detalheesgoto": "1",
       "detalheresagua": "0",
       "detalheestasfaltada": "1",
       "detalherestaurante": "1",
       "detalhefrentemar": "0",
       "detalhesalaofesta": "2",
       "detalhesalaofestainf": "1",
       "detalhepiscina": "1",
       "detalhepiscinfantil": "1",
       "detalhepiscaquecida": "0",
       "detalheestvisitante": "0",
       "detalhesalaginastica": "1",
       "detalhesalaojogos": "1",
       "detalhesauna": "1",
       "detalhepomar": "0",
       "detalhegourmet": "1",
       "detalhesalaestudo": "1",
       "detalhesaladescanso": "1",
       "detalhespa": "1",
       "detalhelounge": "1",
       "detalhebrinquedoteca": "1",
       "detalhefraldario": "1",
       "detalhefornopp": "1",
       "detalheespmulher": "0",
       "detalhevestiario": "1",
       "detalhesolarium": "1",
       "detalhelavabo": "1",
       "detalhedog": "0",
       "detalhefitness": "1",
       "paratime": "2021-03-17T16:55:05-03:00",
       "ultimasunidades": "0",
       "pubdestaque": "0",
       "situacao": "0",
       "detalhequadrapolicob": "0",
       "detalhefutareia": "1",
       "detalhevoleipraia": "1",
       "detalheconveniencia": "0",
       "detalhecascata": "0",
       "detalhelual": "0",
       "detalhecercaelet": "0",
       "detalhemeditacao": "1",
       "detalhelago": "0",
       "detalhepraca": "0",
       "detalhepraiaart": "0",
       "detalheheliporto": "0",
       "detalhesaunaseca": "1",
       "detalhecampogolf": "0",
       "detalheboliche": "0",
       "detalheofuro": "0",
       "detalhelanhouse": "0",
       "detalhebocha": "0",
       "detalhecinema": "0",
       "detalhealarmemoni": "1",
       "detalhemarina": "0",
       "detalhemusichall": "0",
       "detalhehealthy": "0",
       "detalhequiosque": "0",
       "detalhecircuitotv": "1",
       "detalhedeposito": "0",
       "detalheedicula": "0",
       "detalhegascentral": "1",
       "detalhegradil": "0",
       "detalheinterfone": "1",
       "detalheportaoelet": "1",
       "detalhepilotis": "0",
       "detalheportaria": "0",
       "detalheportaria24h": "1",
       "detalheseguranca": "0",
       "detalheterraco": "0",
       "detalhezelador": "0",
       "detalheelevador": "2",
       "detalheelevadorserv": "1",
       "detalheelevadorsoc": "1",
       "detalheelevadorsem": "0",
       "detalhesensorpres": "0",
       "principalregiao": "Pontal Oceanico",
       "principalpadrao": "ALTO",
       "principallocalalizacao": "ÓTIMA",
       "principalesquina": "1",
       "detalheporcelanato": "1",
       "detalhepisofrio": "1",
       "detalhegranito": "0",
       "detalhemarmore": "0",
       "detalhemadeira": "0",
       "detalhehalldecorado": "1",
       "detalhegaragembarco": "0",
       "detalheseguranca24hs": "1",
       "detalheentradavis": "0",
       "detalhesalaofestaad": "1",
       "detalhejardim": "0",
       "detalhepiscinaraia": "0",
       "detalhebar": "0",
       "detalhequadrateniscob": "1",
       "detalhecampofutebol": "0",
       "detalhefrentepraca": "0",
       "detalhefrenteshop": "0",
       "detalhefrentesupm": "0",
       "detalhefrenteav": "0",
       "detalhemuro": "1",
       "detalheespelhodagua": "0",
       "detalhepraiapriv": "0",
       "detalhehallentrada": "0",
       "principaltotalunidades": "336",
       "principalcondominio": "1",
       "principalcomplemento": [],
       "pais": "Brasil",
       "principaltitle": "Apartamento, Barra da Tijuca, Rio de Janeiro",
       "fkmoeda": "45015"
    }
 ]