[
    {
      "fkempresa": "21756",
      "pkatende": "4802425",
      "fkcliente": "11293611",
      "fkuser": "222044",
      "fkcorre": "222044",
      "dataate": "2018-07-11T14:42:17.917-03:00",
      "atendido": "1",
      "datacorre": "2018-07-27T17:30:20.637-03:00",
      "observacli": "Corretor Online:\r\nCLIENTE DESEJA RESPOSTA POR: Indiferente\r\n\r\nIMÓVEL: DB24\r\n\r\nMENSAGEM:\r\nBoa tarde, tenho interesse no residencial santorini",
      "avaliacli": "0",
      "paratime": "2018-07-27T17:30:21-03:00",
      "midia": "CORRETOR ONLINE",
      "pretensao": "Venda CASA, Taquara, RS, Petropolis, valor entre R$ 198.000,00 e R$ 242.000,00",
      "prioridade": "0"
    },
    {
      "fkempresa": "21756",
      "pkatende": "5017913",
      "fkcliente": "64908155",
      "fkuser": "232142",
      "fkcorre": "232142",
      "dataate": "2018-11-18T17:49:08-02:00",
      "atendido": "1",
      "datacorre": "2019-02-26T20:34:10-03:00",
      "observacli": "MEU SITE:\r\nCLIENTE DESEJA RESPOSTA POR: Indiferente\r\n\r\nIMÓVEL: ig14\r\n\r\nMENSAGEM:\r\nBom dia! Esse valor é negociável??",
      "avaliacli": "0",
      "paratime": "2019-02-26T20:34:10-03:00",
      "midia": "MEU SITE",
      "pretensao": "Venda CASA, Igrejinha, RS, Casa de Pedra, valor entre R$ 144.000,00 e R$ 176.000,00, área entre 63,00 m² e 77,00 m², 2 dormitórios",
      "prioridade": "0"
    },
    {
      "fkempresa": "21756",
      "pkatende": "5017914",
      "fkcliente": "64908156",
      "fkuser": "232142",
      "fkcorre": "232142",
      "dataate": "2018-11-18T17:53:07-02:00",
      "atendido": "1",
      "datacorre": "2019-02-26T20:34:14-03:00",
      "observacli": "MEU SITE:\r\nCLIENTE DESEJA RESPOSTA POR: \r\n\r\nIMÓVEL: ig56\r\n\r\nMENSAGEM:\r\nAgendar Visita (19/11)\r\nEste número é do meu wasszp.ok valor da casa",
      "avaliacli": "0",
      "paratime": "2019-02-26T20:34:14-03:00",
      "midia": "MEU SITE",
      "pretensao": "Venda CASA, Igrejinha, RS, Bom Pastor, valor entre R$ 2.194.200,00 e R$ 2.681.800,00, área entre 526,00 m² e 642,00 m², 3 dormitórios, 3 vagas",
      "prioridade": "0"
    },
    {
      "fkempresa": "21756",
      "pkatende": "5051502",
      "fkcliente": "65008808",
      "fkuser": "222047",
      "fkcorre": "229495",
      "dataate": "2018-12-10T09:31:22-02:00",
      "atendido": "0",
      "observacli": "MEU SITE:\r\nCLIENTE DESEJA RESPOSTA POR: Email\r\n\r\nIMÓVEL: \r\n\r\nMENSAGEM:\r\nOlá Procuro um sítio para alugar para os dias 30/12 a 01/01 para 17 pessoas com piscina",
      "avaliacli": "0",
      "paratime": "2018-12-10T09:31:22-02:00",
      "midia": "MEU SITE",
      "prioridade": "0"
    },
    {
      "fkempresa": "21756",
      "pkatende": "5051510",
      "fkcliente": "11293611",
      "fkuser": "222047",
      "fkcorre": "222044",
      "dataate": "2018-12-10T09:32:05-02:00",
      "atendido": "1",
      "datacorre": "2019-06-17T17:41:26-03:00",
      "observacli": "MEU SITE:\r\nCLIENTE DESEJA RESPOSTA POR: Indiferente\r\n\r\nIMÓVEL: Taq267\r\n\r\nMENSAGEM:\r\nOlá tenho interesse em casa condominio no bairro sagrada família, valor 148 mil",
      "avaliacli": "0",
      "paratime": "2019-06-17T17:41:26-03:00",
      "midia": "MEU SITE",
      "pretensao": "Venda CASA, Taquara, RS, Sagrada Familia, valor entre R$ 133.200,00 e R$ 162.800,00, área entre 60,00 m² e 72,00 m², 2 dormitórios, 1 vaga",
      "prioridade": "0"
    },
    {
      "fkempresa": "21756",
      "pkatende": "5051988",
      "fkcliente": "65009360",
      "fkuser": "222047",
      "fkcorre": "222044",
      "dataate": "2018-12-10T10:27:13-02:00",
      "atendido": "1",
      "datacorre": "2019-06-17T17:41:16-03:00",
      "observacli": "MEU SITE:\r\nCLIENTE DESEJA RESPOSTA POR: 97372209\r\n\r\nIMÓVEL: Taq439\r\n\r\nMENSAGEM:\r\nOnde fica no bairro empresa ...",
      "avaliacli": "0",
      "paratime": "2019-06-17T17:41:16-03:00",
      "midia": "MEU SITE",
      "pretensao": "Venda CASA, Taquara, RS, Empresa, valor entre R$ 63.000,00 e R$ 77.000,00, 2 dormitórios, 1 vaga",
      "prioridade": "0"
    },
    {
      "fkempresa": "21756",
      "pkatende": "5051997",
      "fkcliente": "65009367",
      "fkuser": "222047",
      "fkcorre": "222044",
      "dataate": "2018-12-10T10:27:55-02:00",
      "atendido": "1",
      "datacorre": "2019-06-17T17:41:45-03:00",
      "observacli": "MEU SITE:\r\nCLIENTE DESEJA RESPOSTA POR: Indiferente\r\n\r\nIMÓVEL: Taq447\r\n\r\nMENSAGEM:\r\nBoa noite. Quais as medidas e valores deste terreno. Aceita carta de crédito (consórcio)?ou veículo como entrada?",
      "avaliacli": "0",
      "paratime": "2019-06-17T17:41:45-03:00",
      "midia": "MEU SITE",
      "pretensao": "TERRENO, Taquara, RS, Fogão Gaúcho",
      "prioridade": "0"
    },
    {
      "fkempresa": "21756",
      "pkatende": "5052048",
      "fkcliente": "65009424",
      "fkuser": "222047",
      "fkcorre": "222044",
      "dataate": "2018-12-10T10:33:26-02:00",
      "atendido": "1",
      "datacorre": "2019-06-17T17:42:39-03:00",
      "observacli": "Portal das Imobiliárias:\r\nCLIENTE DESEJA RESPOSTA POR: E-mail\r\n\r\nIMÓVEL: Taq261\r\n\r\nMENSAGEM:\r\nSolicito maiores informações. Se tem negociação e financiamento bancário. Outrossim, qual andar?",
      "avaliacli": "0",
      "paratime": "2019-06-17T17:42:39-03:00",
      "midia": "PORTAL DAS IMOBILIÁRIAS",
      "pretensao": "Venda APARTAMENTO, Igrejinha, RS, XV de Novembro, valor entre R$ 199.800,00 e R$ 244.200,00, 2 dormitórios, 1 vaga",
      "prioridade": "0"
    },
    {
      "fkempresa": "21756",
      "pkatende": "5186607",
      "fkcliente": "65338204",
      "fkuser": "229426",
      "fkcorre": "229426",
      "dataate": "2019-02-26T16:20:21-03:00",
      "atendido": "1",
      "datacorre": "2019-04-29T17:56:55-03:00",
      "observacli": "Imóvel Web:\r\nCLIENTE DESEJA RESPOSTA POR: Indiferente\r\n\r\nIMÓVEL: Taq297\r\n\r\nMENSAGEM:\r\nOlá, vi este imóvel no Imovelweb e gostaria de receber mais informações sobre o mesmo. Obrigado!",
      "avaliacli": "0",
      "paratime": "2019-04-29T17:56:55-03:00",
      "midia": "IMÓVEL WEB",
      "pretensao": "Venda APARTAMENTO, Taquara, RS, Centro, valor entre R$ 243.000,00 e R$ 297.000,00, área entre 104,00 m² e 126,00 m², 2 dormitórios",
      "prioridade": "0"
    },
    {
      "fkempresa": "21756",
      "pkatende": "5186685",
      "fkcliente": "65338351",
      "fkuser": "229426",
      "fkcorre": "229426",
      "dataate": "2019-02-26T16:43:29-03:00",
      "atendido": "1",
      "datacorre": "2019-04-29T17:57:07-03:00",
      "observacli": "Imóvel Web:\r\nCLIENTE DESEJA RESPOSTA POR: Indiferente\r\n\r\nIMÓVEL: Taq180\r\n\r\nMENSAGEM:\r\nOlá, vi este imóvel no Imovelweb e gostaria de receber mais informações sobre o mesmo. Obrigado!",
      "avaliacli": "0",
      "paratime": "2019-04-29T17:57:07-03:00",
      "midia": "IMÓVEL WEB",
      "pretensao": "Venda TERRENO, Sombrio, SC, Sombrio, valor entre R$ 18.000,00 e R$ 22.000,00",
      "prioridade": "0"
    },
    {
      "fkempresa": "21756",
      "pkatende": "5187362",
      "fkcliente": "65339320",
      "fkuser": "229426",
      "fkcorre": "222044",
      "dataate": "2019-03-06T17:27:40-03:00",
      "atendido": "1",
      "datacorre": "2019-06-17T11:00:13-03:00",
      "observacli": "Imóvel Web:\r\nCLIENTE DESEJA RESPOSTA POR: Indiferente\r\n\r\nIMÓVEL: Taq282\r\n\r\nMENSAGEM:\r\nOlá, vi este imóvel no Imovelweb e gostaria de receber mais informações sobre o mesmo. Obrigado!\r\n\r\nImóvel Web:\r\nCLIENTE DESEJA RESPOSTA POR: Indiferente\r\n\r\nIMÓVEL: Taq145\r\n\r\nMENSAGEM:\r\nOlá, vi este imóvel no Imovelweb e gostaria de receber mais informações sobre o mesmo. Obrigado!",
      "avaliacli": "0",
      "paratime": "2019-06-17T11:00:13-03:00",
      "midia": "IMÓVEL WEB",
      "pretensao": "Venda CHÁCARA, Taquara, RS, Santa Rosa, valor entre R$ 225.000,00 e R$ 275.000,00, 4 dormitórios",
      "prioridade": "0"
    },
    {
      "fkempresa": "21756",
      "pkatende": "5197575",
      "fkcliente": "65358861",
      "fkuser": "229426",
      "fkcorre": "229426",
      "dataate": "2019-03-06T15:45:55-03:00",
      "atendido": "1",
      "datacorre": "2019-04-29T17:57:23-03:00",
      "observacli": "Imóvel Web:\r\nCLIENTE DESEJA RESPOSTA POR: Indiferente\r\n\r\nIMÓVEL: Taq282\r\n\r\nMENSAGEM:\r\nOlá, vi este imóvel no Imovelweb e gostaria de receber mais informações sobre o mesmo. Obrigado!",
      "avaliacli": "0",
      "paratime": "2019-04-29T17:57:23-03:00",
      "midia": "IMÓVEL WEB",
      "pretensao": "Venda CHÁCARA, Taquara, RS, Santa Rosa, valor entre R$ 225.000,00 e R$ 275.000,00, 4 dormitórios",
      "prioridade": "0"
    },
    {
      "fkempresa": "21756",
      "pkatende": "5197587",
      "fkcliente": "65358876",
      "fkuser": "229426",
      "fkcorre": "229426",
      "dataate": "2019-03-06T15:47:51-03:00",
      "atendido": "1",
      "datacorre": "2019-04-29T17:58:02-03:00",
      "observacli": "Imóvel Web:\r\nCLIENTE DESEJA RESPOSTA POR: Indiferente\r\n\r\nIMÓVEL: Taq333\r\n\r\nMENSAGEM:\r\nOlá, vi este imóvel no Imovelweb e gostaria que entrem em contato comigo pelo telefone 54 991825710.Obrigado!",
      "avaliacli": "0",
      "paratime": "2019-04-29T17:58:02-03:00",
      "midia": "IMÓVEL WEB",
      "pretensao": "Venda CASA, Capão da Canoa, RS, Capão Norte, valor entre R$ 270.000,00 e R$ 330.000,00, área entre 126,00 m² e 152,00 m², 3 dormitórios, 1 vaga",
      "prioridade": "0"
    },
    {
      "fkempresa": "21756",
      "pkatende": "5197773",
      "fkcliente": "65359139",
      "fkuser": "229426",
      "fkcorre": "222044",
      "dataate": "2019-03-06T16:23:35-03:00",
      "atendido": "1",
      "datacorre": "2019-06-17T17:42:22-03:00",
      "observacli": "Imóvel Web:\r\nCLIENTE DESEJA RESPOSTA POR: Indiferente\r\n\r\nIMÓVEL: Taq184\r\n\r\nMENSAGEM:\r\nOlá, vi este imóvel no Imovelweb e gostaria de receber mais informações sobre o mesmo. Obrigado!",
      "avaliacli": "0",
      "paratime": "2019-06-17T17:42:22-03:00",
      "midia": "IMÓVEL WEB",
      "pretensao": "Venda CHÁCARA, São Francisco de Paula, RS, São Bernardo, valor entre R$ 225.000,00 e R$ 275.000,00",
      "prioridade": "0"
    },
    {
      "fkempresa": "21756",
      "pkatende": "5197778",
      "fkcliente": "65359144",
      "fkuser": "229426",
      "fkcorre": "229426",
      "dataate": "2019-03-06T16:24:55-03:00",
      "atendido": "1",
      "datacorre": "2019-04-29T17:56:08-03:00",
      "observacli": "Imóvel Web:\r\nCLIENTE DESEJA RESPOSTA POR: Indiferente\r\n\r\nIMÓVEL: DB69\r\n\r\nMENSAGEM:\r\nOlá, vi este imóvel no Imovelweb e gostaria de receber mais informações sobre o mesmo. Obrigado!",
      "avaliacli": "0",
      "paratime": "2019-04-29T17:56:08-03:00",
      "midia": "IMÓVEL WEB",
      "pretensao": "Venda TERRENO, Riozinho, RS, Riozinho, valor entre R$ 49.500,00 e R$ 60.500,00",
      "prioridade": "0"
    },
    {
      "fkempresa": "21756",
      "pkatende": "5197801",
      "fkcliente": "65359179",
      "fkuser": "229426",
      "fkcorre": "229426",
      "dataate": "2019-03-06T16:30:23-03:00",
      "atendido": "1",
      "datacorre": "2019-04-29T17:56:05-03:00",
      "observacli": "Imóvel Web:\r\nCLIENTE DESEJA RESPOSTA POR: Indiferente\r\n\r\nIMÓVEL: DB27\r\n\r\nMENSAGEM:\r\nOlá, vi este imóvel no Imovelweb e gostaria de receber mais informações sobre o mesmo. Obrigado! Aceitam outra propriedade? Procura um imóvel para morar.",
      "avaliacli": "0",
      "paratime": "2019-04-29T17:56:05-03:00",
      "midia": "IMÓVEL WEB",
      "pretensao": "Venda CASA, Parobé, RS, Centro, valor entre R$ 265.500,00 e R$ 324.500,00, área entre 133,00 m² e 161,00 m², 3 dormitórios, 2 vagas",
      "prioridade": "0"
    },
    {
      "fkempresa": "21756",
      "pkatende": "5205629",
      "fkcliente": "65371068",
      "fkuser": "229426",
      "fkcorre": "229426",
      "dataate": "2019-03-11T11:30:28-03:00",
      "atendido": "1",
      "datacorre": "2019-04-29T17:58:29-03:00",
      "observacli": "Imóvel Web:\r\nCLIENTE DESEJA RESPOSTA POR: Indiferente\r\n\r\nIMÓVEL: Taq407\r\n\r\nMENSAGEM:\r\nOlá, vi este imóvel no Imovelweb e gostaria de receber mais informações sobre o mesmo. Obrigado!\r\n\r\nImóvel Web:\r\nCLIENTE DESEJA RESPOSTA POR: Indiferente\r\n\r\nIMÓVEL: Taq162\r\n\r\nMENSAGEM:\r\nOlá, vi este imóvel no Imovelweb e gostaria de receber mais informações sobre o mesmo. Obrigado!",
      "avaliacli": "0",
      "paratime": "2019-04-29T17:58:29-03:00",
      "midia": "IMÓVEL WEB",
      "pretensao": "Venda CASA, Taquara, RS, Santa Rosa, valor entre R$ 67.500,00 e R$ 82.500,00, 2 dormitórios, 2 vagas",
      "prioridade": "0"
    },
    {
      "fkempresa": "21756",
      "pkatende": "5229977",
      "fkcliente": "65422847",
      "fkuser": "232142",
      "fkcorre": "232142",
      "dataate": "2019-03-24T19:58:23-03:00",
      "atendido": "0",
      "observacli": "Imóvel Web:\r\nCLIENTE DESEJA RESPOSTA POR: Indiferente\r\n\r\nIMÓVEL: ig27\r\n\r\nMENSAGEM:\r\nOlá, vi este imóvel no Imovelweb e gostaria de receber mais informações sobre o mesmo. Obrigado!",
      "avaliacli": "0",
      "paratime": "2019-03-24T19:58:25-03:00",
      "midia": "IMÓVEL WEB",
      "pretensao": "Venda APARTAMENTO, Nova Hartz, RS, Centro, valor entre R$ 211.500,00 e R$ 258.500,00, área entre 72,00 m² e 88,00 m², 3 dormitórios, 1 vaga",
      "prioridade": "0"
    },
    {
      "fkempresa": "21756",
      "pkatende": "5244835",
      "fkcliente": "65468194",
      "fkuser": "229426",
      "fkcorre": "229426",
      "dataate": "2019-04-01T10:52:36-03:00",
      "atendido": "1",
      "datacorre": "2019-04-02T09:50:47-03:00",
      "observacli": "Imóvel Web:\r\nCLIENTE DESEJA RESPOSTA POR: Indiferente\r\n\r\nIMÓVEL: Taq279\r\n\r\nMENSAGEM:\r\nOlá, vi este imóvel no Imovelweb e gostaria de receber mais informações sobre o mesmo. Obrigado!",
      "avaliacli": "0",
      "paratime": "2019-04-02T09:50:47-03:00",
      "midia": "IMÓVEL WEB",
      "pretensao": "Venda CASA, TAQUARA, RS, CENTRO, valor entre R$ 507.600,00 e R$ 620.400,00, área entre 198,00 m² e 242,00 m²",
      "prioridade": "0"
    },
    {
      "fkempresa": "21756",
      "pkatende": "5249183",
      "fkcliente": "65474802",
      "fkuser": "229426",
      "fkcorre": "229426",
      "dataate": "2019-04-02T17:26:44-03:00",
      "atendido": "1",
      "datacorre": "2019-04-11T12:41:19-03:00",
      "observacli": "Imóvel Web:\r\nCLIENTE DESEJA RESPOSTA POR: Indiferente\r\n\r\nIMÓVEL: DB64\r\n\r\nMENSAGEM:\r\nOlá, vi este imóvel no Imovelweb e gostaria de receber mais informações sobre o mesmo. Obrigado!",
      "avaliacli": "0",
      "paratime": "2019-04-11T12:41:19-03:00",
      "midia": "IMÓVEL WEB",
      "pretensao": "Venda APARTAMENTO, Taquara, RS, Centro, valor entre R$ 175.500,00 e R$ 214.500,00, 3 dormitórios",
      "prioridade": "0"
    },
    {
      "fkempresa": "21756",
      "pkatende": "5255363",
      "fkcliente": "65504087",
      "fkuser": "229426",
      "fkcorre": "229426",
      "dataate": "2019-04-05T16:47:44-03:00",
      "atendido": "1",
      "datacorre": "2019-04-05T16:59:46-03:00",
      "observacli": "Imóvel Web:\r\nCLIENTE DESEJA RESPOSTA POR: Indiferente\r\n\r\nIMÓVEL: AR00006\r\n\r\nMENSAGEM:\r\nOlá, vi este imóvel no Imovelweb e gostaria de receber mais informações sobre o mesmo. Obrigado!",
      "avaliacli": "0",
      "paratime": "2019-04-05T16:59:46-03:00",
      "midia": "IMÓVEL WEB",
      "pretensao": "Venda AREA, SÃO FRANCISCO DE PAULA, RS, CACONDE, valor entre R$ 809.100,00 e R$ 988.900,00, área entre 47,00 m² e 57,00 m²",
      "prioridade": "0"
    },
    {
      "fkempresa": "21756",
      "pkatende": "5270325",
      "fkcliente": "65548302",
      "fkuser": "229426",
      "fkcorre": "229426",
      "dataate": "2019-04-15T09:48:07-03:00",
      "atendido": "1",
      "datacorre": "2019-04-29T17:55:53-03:00",
      "observacli": "Imóvel Web:\r\nCLIENTE DESEJA RESPOSTA POR: Indiferente\r\n\r\nIMÓVEL: Taq306\r\n\r\nMENSAGEM:\r\nOlá, vi este imóvel no Imovelweb e gostaria de receber mais informações sobre o mesmo. Obrigado! Tem possibilidade de troca?",
      "avaliacli": "0",
      "paratime": "2019-04-29T17:55:53-03:00",
      "midia": "IMÓVEL WEB",
      "pretensao": "Venda CASA, TAQUARA, RS, ELDORADO, valor entre R$ 117.000,00 e R$ 143.000,00, área entre 90,00 m² e 110,00 m², 4 dormitórios, 2 vagas",
      "prioridade": "0"
    },
    {
      "fkempresa": "21756",
      "pkatende": "5272218",
      "fkcliente": "65551137",
      "fkuser": "229426",
      "fkcorre": "229426",
      "dataate": "2019-04-15T15:45:45-03:00",
      "atendido": "1",
      "datacorre": "2019-04-29T17:55:46-03:00",
      "observacli": "MEU SITE:\r\nIMÓVEL: AP00007\r\n\r\nMENSAGEM:\r\nBoa tarde..  Este apartamento é somente venda ou aluga tambem??",
      "avaliacli": "0",
      "paratime": "2019-04-29T17:55:46-03:00",
      "midia": "MEU SITE",
      "pretensao": "Venda APARTAMENTO, TAQUARA, RS, PETRÓPOLIS, valor entre R$ 180.000,00 e R$ 220.000,00, área entre 69,00 m² e 83,00 m², 2 dormitórios",
      "prioridade": "0"
    },
    {
      "fkempresa": "21756",
      "pkatende": "5284644",
      "fkcliente": "65637912",
      "fkuser": "232142",
      "fkcorre": "232142",
      "dataate": "2019-04-22T20:30:39-03:00",
      "atendido": "0",
      "observacli": "Imóvel Web:\r\nCLIENTE DESEJA RESPOSTA POR: Indiferente\r\n\r\nIMÓVEL: ig32\r\n\r\nMENSAGEM:\r\nOlá, vi este imóvel no Imovelweb e gostaria de receber mais informações sobre o mesmo. Obrigado!",
      "avaliacli": "0",
      "paratime": "2019-04-22T20:30:40-03:00",
      "midia": "IMÓVEL WEB",
      "pretensao": "Venda SÍTIO, Igrejinha, RS, Solitária, valor entre R$ 99.000,00 e R$ 121.000,00",
      "prioridade": "0"
    },
    {
      "fkempresa": "21756",
      "pkatende": "5288253",
      "fkcliente": "65646592",
      "fkuser": "229426",
      "fkcorre": "229426",
      "dataate": "2019-04-24T11:09:34-03:00",
      "atendido": "1",
      "datacorre": "2019-06-14T09:23:51-03:00",
      "observacli": "Imóvel Web:\r\nCLIENTE DESEJA RESPOSTA POR: Indiferente\r\n\r\nIMÓVEL: CA00003\r\n\r\nMENSAGEM:\r\nOlá, vi este imóvel no Imovelweb e gostaria de receber mais informações sobre o mesmo. Obrigado!",
      "avaliacli": "0",
      "paratime": "2019-06-14T09:23:51-03:00",
      "midia": "IMÓVEL WEB",
      "pretensao": "Venda CASA, NOVA PETRÓPOLIS, RS, POUSADA DA NEVE, valor entre R$ 312.300,00 e R$ 381.700,00, área entre 98,00 m² e 118,00 m², 2 dormitórios, 1 vaga",
      "prioridade": "0"
    },
    {
      "fkempresa": "21756",
      "pkatende": "5313268",
      "fkcliente": "65725585",
      "fkuser": "232142",
      "fkcorre": "232142",
      "dataate": "2019-05-06T20:07:17-03:00",
      "atendido": "0",
      "observacli": "Imóvel Web:\r\nCLIENTE DESEJA RESPOSTA POR: Indiferente\r\n\r\nIMÓVEL: ig25\r\n\r\nMENSAGEM:\r\nOlá, vi este imóvel no Imovelweb e gostaria de receber mais informações sobre o mesmo. Obrigado!",
      "avaliacli": "0",
      "paratime": "2019-05-06T20:07:18-03:00",
      "midia": "IMÓVEL WEB",
      "pretensao": "Venda SOBRADO, Igrejinha, RS, Casa de Pedra, valor entre R$ 153.000,00 e R$ 187.000,00, área entre 65,00 m² e 79,00 m², 2 dormitórios, 1 vaga",
      "prioridade": "0"
    },
    {
      "fkempresa": "21756",
      "pkatende": "5315895",
      "fkcliente": "65729641",
      "fkuser": "229426",
      "fkcorre": "229426",
      "dataate": "2019-05-07T15:49:28-03:00",
      "atendido": "1",
      "datacorre": "2019-05-07T15:49:43-03:00",
      "observacli": "Imóvel Web:\r\nCLIENTE DESEJA RESPOSTA POR: Indiferente\r\n\r\nIMÓVEL: Taq296\r\n\r\nMENSAGEM:\r\nOlá, vi este imóvel no Imovelweb e gostaria de receber mais informações sobre o mesmo. Obrigado!",
      "avaliacli": "0",
      "paratime": "2019-05-07T15:49:43-03:00",
      "midia": "IMÓVEL WEB",
      "pretensao": "Venda CASA, TAQUARA, RS, RIO DA ILHA, valor entre R$ 117.000,00 e R$ 143.000,00, área entre 90,00 m² e 110,00 m², 1 dormitório",
      "prioridade": "0"
    },
    {
      "fkempresa": "21756",
      "pkatende": "5315909",
      "fkcliente": "65729678",
      "fkuser": "229426",
      "fkcorre": "229426",
      "dataate": "2019-05-07T15:54:26-03:00",
      "atendido": "1",
      "datacorre": "2019-06-14T09:25:24-03:00",
      "observacli": "Imóvel Web:\r\nCLIENTE DESEJA RESPOSTA POR: Indiferente\r\n\r\nIMÓVEL: DB79\r\n\r\nMENSAGEM:\r\nOlá, vi este imóvel no Imovelweb e gostaria de receber mais informações sobre o mesmo. Obrigado! Trabalha com carteira assinada . Possui crédito pré-aprovado. Não precisa vender um imóvel. Procura um imóvel para morar com a família. Procura um imóvel para morar.",
      "avaliacli": "0",
      "paratime": "2019-06-14T09:25:24-03:00",
      "midia": "IMÓVEL WEB",
      "pretensao": "Venda CASA, TAQUARA, RS, SANTA ROSA, valor entre R$ 81.000,00 e R$ 99.000,00, área entre 72,00 m² e 88,00 m², 2 dormitórios",
      "prioridade": "0"
    },
    {
      "fkempresa": "21756",
      "pkatende": "5330933",
      "fkcliente": "65754225",
      "fkuser": "229426",
      "fkcorre": "229426",
      "dataate": "2019-05-15T10:52:29-03:00",
      "atendido": "1",
      "datacorre": "2019-06-14T09:26:23-03:00",
      "observacli": "Imóvel Web:\r\nCLIENTE DESEJA RESPOSTA POR: Indiferente\r\n\r\nIMÓVEL: AR00006\r\n\r\nMENSAGEM:\r\nOlá, vi este imóvel no Imovelweb e gostaria de receber mais informações sobre o mesmo. Obrigado!.",
      "avaliacli": "0",
      "paratime": "2019-06-14T09:26:23-03:00",
      "midia": "IMÓVEL WEB",
      "pretensao": "Venda AREA, SÃO FRANCISCO DE PAULA, RS, CACONDE, valor entre R$ 809.100,00 e R$ 988.900,00, área entre 47,00 m² e 57,00 m²",
      "prioridade": "0"
    },
    {
      "fkempresa": "21756",
      "pkatende": "5330935",
      "fkcliente": "65754228",
      "fkuser": "229426",
      "fkcorre": "229426",
      "dataate": "2019-05-15T10:52:43-03:00",
      "atendido": "1",
      "datacorre": "2019-06-14T09:27:00-03:00",
      "observacli": "Imóvel Web:\r\nCLIENTE DESEJA RESPOSTA POR: Indiferente\r\n\r\nIMÓVEL: AR00006\r\n\r\nMENSAGEM:\r\nOlá, vi este imóvel no Imovelweb e gostaria de receber mais informações sobre o mesmo. Obrigado!.\r\n\r\nImóvel Web:\r\nCLIENTE DESEJA RESPOSTA POR: Indiferente\r\n\r\nIMÓVEL: AR00011\r\n\r\nMENSAGEM:\r\nOlá, vi este imóvel no Imovelweb e gostaria de receber mais informações sobre o mesmo. Obrigado!.",
      "avaliacli": "0",
      "paratime": "2019-06-14T09:27:00-03:00",
      "midia": "IMÓVEL WEB",
      "pretensao": "Venda AREA, SÃO FRANCISCO DE PAULA, RS, CACONDE, valor entre R$ 809.100,00 e R$ 988.900,00, área entre 47,00 m² e 57,00 m²",
      "prioridade": "0"
    },
    {
      "fkempresa": "21756",
      "pkatende": "5386405",
      "fkcliente": "65474802",
      "fkuser": "229426",
      "fkcorre": "229426",
      "dataate": "2019-06-04T15:19:15-03:00",
      "atendido": "1",
      "datacorre": "2019-06-14T09:23:44-03:00",
      "observacli": "Imóvel Web:\r\nCLIENTE DESEJA RESPOSTA POR: Indiferente\r\n\r\nIMÓVEL: Taq454\r\n\r\nMENSAGEM:\r\nOlá, vi este imóvel no Imovelweb e gostaria de receber mais informações sobre o mesmo. Obrigado!.",
      "avaliacli": "0",
      "paratime": "2019-06-14T09:23:44-03:00",
      "midia": "IMÓVEL WEB",
      "pretensao": "Venda APARTAMENTO, TAQUARA, RS, CENTRO, valor entre R$ 157.500,00 e R$ 192.500,00, área entre 57,00 m² e 69,00 m², 2 dormitórios, 1 vaga",
      "prioridade": "0"
    },
    {
      "fkempresa": "21756",
      "pkatende": "5407817",
      "fkcliente": "65924942",
      "fkuser": "222044",
      "fkcorre": "229426",
      "dataate": "2019-06-15T11:46:33-03:00",
      "atendido": "4",
      "observacli": "PERFIL DE INTERESSE: \r\nVenda APARTAMENTO, Taquara, RS, Jardim do Prado",
      "avaliacli": "0",
      "paratime": "2019-11-04T12:17:37-03:00",
      "midia": "INDICAÇÃO",
      "pretensao": "Venda APARTAMENTO, Igrejinha, RS, Jardim do Prado",
      "prioridade": "0"
    },
    {
      "fkempresa": "21756",
      "pkatende": "5410706",
      "fkcliente": "65928071",
      "fkuser": "229426",
      "fkcorre": "229426",
      "dataate": "2019-06-17T11:35:53-03:00",
      "atendido": "4",
      "observacli": "PERFIL DE INTERESSE: \r\nVenda CASA, Imbé, RS\r\n\r\nIMÓVEIS DE INTERESSE: \r\nCA00023",
      "avaliacli": "0",
      "paratime": "2019-06-17T11:39:36-03:00",
      "midia": "INTERNET",
      "pretensao": "Venda CASA, Imbé, RS",
      "prioridade": "0"
    },
    {
      "fkempresa": "21756",
      "pkatende": "5429233",
      "fkcliente": "65971578",
      "fkuser": "229426",
      "fkcorre": "222044",
      "dataate": "2019-06-26T10:32:15-03:00",
      "atendido": "1",
      "datacorre": "2019-06-29T16:03:21-03:00",
      "observacli": "Imóvel Web:\r\nCLIENTE DESEJA RESPOSTA POR: Indiferente\r\n\r\nIMÓVEL: CA00008\r\n\r\nMENSAGEM:\r\nOlá, vi este imóvel no Imovelweb e gostaria de receber mais informações sobre o mesmo. Obrigado!.",
      "avaliacli": "0",
      "paratime": "2019-06-29T16:03:21-03:00",
      "midia": "IMÓVEL WEB",
      "pretensao": "Venda CASA, São Francisco de Paula, RS, Lago Sâo Bernardo, valor entre R$ 238.500,00 e R$ 291.500,00, área entre 57,00 m² e 69,00 m², 3 dormitórios, 1 vaga",
      "prioridade": "0"
    },
    {
      "fkempresa": "21756",
      "pkatende": "5456448",
      "fkcliente": "66045462",
      "fkuser": "229426",
      "fkcorre": "222044",
      "dataate": "2019-07-09T16:09:12-03:00",
      "atendido": "0",
      "observacli": "Imóvel Web:\r\nCLIENTE DESEJA RESPOSTA POR: Indiferente\r\n\r\nIMÓVEL: CA00022\r\n\r\nMENSAGEM:\r\nOlá, vi este imóvel no Imovelweb e gostaria que entrem em contato comigo pelo telefone 51997323832.Obrigado!.",
      "avaliacli": "0",
      "paratime": "2019-07-09T16:09:14-03:00",
      "midia": "IMÓVEL WEB",
      "pretensao": "Venda CASA, PAROBÉ, RS, PALMEIRA, valor entre R$ 62.100,00 e R$ 75.900,00, área entre 54,00 m² e 66,00 m², 2 dormitórios",
      "prioridade": "0"
    },
    {
      "fkempresa": "21756",
      "pkatende": "5524489",
      "fkcliente": "66190256",
      "fkuser": "229426",
      "fkcorre": "229426",
      "dataate": "2019-08-02T13:39:21-03:00",
      "atendido": "1",
      "datacorre": "2019-11-04T12:16:44-03:00",
      "observacli": "Imóvel Web:\r\nCLIENTE DESEJA RESPOSTA POR: Indiferente\r\n\r\nIMÓVEL: Taq296\r\n\r\nMENSAGEM:\r\nOlá, vi este imóvel no Imovelweb e gostaria de receber mais informações sobre o mesmo. Obrigado!.\r\n\r\nImóvel Web:\r\nCLIENTE DESEJA RESPOSTA POR: Indiferente\r\n\r\nIMÓVEL: Taq162\r\n\r\nMENSAGEM:\r\nOlá, vi este imóvel no Imovelweb e gostaria de receber mais informações sobre o mesmo. Obrigado!.\r\n\r\nImóvel Web:\r\nCLIENTE DESEJA RESPOSTA POR: Indiferente\r\n\r\nIMÓVEL: Taq063\r\n\r\nMENSAGEM:\r\nOlá, vi este imóvel no Imovelweb e gostaria de receber mais informações sobre o mesmo. Obrigado!.",
      "avaliacli": "0",
      "paratime": "2019-11-04T12:16:44-03:00",
      "midia": "IMÓVEL WEB",
      "pretensao": "Venda CASA, TAQUARA, RS, RIO DA ILHA, valor entre R$ 117.000,00 e R$ 143.000,00, área entre 90,00 m² e 110,00 m², 1 dormitório",
      "prioridade": "0"
    },
    {
      "fkempresa": "21756",
      "pkatende": "5765381",
      "fkcliente": "66828730",
      "fkuser": "229426",
      "fkcorre": "229426",
      "dataate": "2019-11-04T12:04:31-03:00",
      "atendido": "4",
      "observacli": "PERFIL DE INTERESSE: \r\nVenda CASA, Taquara, RS, valor até R$ 150.000,00\r\n\r\nIMÓVEIS DE INTERESSE: \r\nTaq494",
      "avaliacli": "0",
      "paratime": "2019-11-04T12:05:17-03:00",
      "midia": "FACHADA",
      "pretensao": "Venda CASA, Taquara, RS, valor até R$ 150.000,00",
      "prioridade": "0"
    },
    {
      "fkempresa": "21756",
      "pkatende": "5792367",
      "fkcliente": "66925449",
      "fkuser": "229426",
      "fkcorre": "222044",
      "dataate": "2019-11-12T15:42:34-03:00",
      "atendido": "0",
      "observacli": "Imóvel Web:\r\nCLIENTE DESEJA RESPOSTA POR: Indiferente\r\n\r\nIMÓVEL: Taq099\r\n\r\nMENSAGEM:\r\nOlá, vi este imóvel no Imovelweb e gostaria de receber mais informações sobre o mesmo. Obrigado!.\r\n\r\nImóvel Web:\r\nCLIENTE DESEJA RESPOSTA POR: Indiferente\r\n\r\nIMÓVEL: DB21\r\n\r\nMENSAGEM:\r\nOlá, vi este imóvel no Imovelweb e gostaria de receber mais informações sobre o mesmo. Obrigado!.",
      "avaliacli": "0",
      "paratime": "2019-11-18T11:36:50-03:00",
      "midia": "IMÓVEL WEB",
      "pretensao": "Venda CASA, TAQUARA, RS, CRUZEIRO DO SUL, valor entre R$ 243.000,00 e R$ 297.000,00, área entre 194,00 m² e 236,00 m², 2 dormitórios, 3 vagas",
      "prioridade": "0"
    },
    {
      "fkempresa": "21756",
      "pkatende": "5807792",
      "fkcliente": "66947243",
      "fkuser": "229426",
      "fkcorre": "222044",
      "dataate": "2019-11-18T15:42:32-03:00",
      "atendido": "0",
      "observacli": "Imóvel Web:\r\nCLIENTE DESEJA RESPOSTA POR: Indiferente\r\n\r\nIMÓVEL: AR00014\r\n\r\nMENSAGEM:\r\nOlá, vi este imóvel no Imovelweb e gostaria de receber mais informações sobre o mesmo. Obrigado!.",
      "avaliacli": "0",
      "paratime": "2019-11-18T15:42:33-03:00",
      "midia": "IMÓVEL WEB",
      "pretensao": "Venda AREA, TAQUARA, RS, BATINGUEIRA, valor entre R$ 267.300,00 e R$ 326.700,00, área entre 11,00 m² e 13,00 m²",
      "prioridade": "0"
    },
    {
      "fkempresa": "21756",
      "pkatende": "5936283",
      "fkcliente": "65359139",
      "fkuser": "229426",
      "fkcorre": "222044",
      "dataate": "2019-11-28T09:28:05-03:00",
      "atendido": "0",
      "observacli": "Imóvel Web:\r\nCLIENTE DESEJA RESPOSTA POR: Indiferente\r\n\r\nIMÓVEL: ST00006\r\n\r\nMENSAGEM:\r\nOlá, vi este imóvel no Imovelweb e gostaria de receber mais informações sobre o mesmo. Obrigado!.\r\n\r\nEntrei em contato com o Luiz que havia perguntado sobre o sítio do Maurício no Parque Suíço, ele disse que estava com um outro  negócio praticamente fechado, mas me coloquei a disposição para caso não feche o negócio enviar outras alternativas, em 28/11/2019",
      "avaliacli": "0",
      "paratime": "2019-11-28T10:11:51-03:00",
      "midia": "IMÓVEL WEB",
      "pretensao": "Venda SITIO, SÃO FRANCISCO DE PAULA, RS, SÃO BERNARDO, valor entre R$ 225.000,00 e R$ 275.000,00, 2 dormitórios",
      "prioridade": "0"
    },
    {
      "fkempresa": "21756",
      "pkatende": "5936297",
      "fkcliente": "67013241",
      "fkuser": "229426",
      "fkcorre": "222044",
      "dataate": "2019-11-28T09:28:48-03:00",
      "atendido": "0",
      "observacli": "Imóvel Web:\r\nCLIENTE DESEJA RESPOSTA POR: Indiferente\r\n\r\nIMÓVEL: AR00006\r\n\r\nMENSAGEM:\r\nOlá, vi este imóvel no Imovelweb e gostaria de receber mais informações sobre o mesmo. Obrigado!.\r\n\r\n\r\nCto com Paulo o mesmo tem uma pousada em Bombinhas/SC avaliada em R$ 800.000,00 e quer permutar com área para pecuária não inferior a 30 hectares, me enviou fotos da pousada em 28/11/2019",
      "avaliacli": "0",
      "paratime": "2019-11-28T10:07:32-03:00",
      "midia": "IMÓVEL WEB",
      "pretensao": "Venda AREA, SÃO FRANCISCO DE PAULA, RS, CACONDE, valor entre R$ 809.100,00 e R$ 988.900,00, área entre 47,00 m² e 57,00 m²",
      "prioridade": "0"
    },
    {
      "fkempresa": "21756",
      "pkatende": "5936300",
      "fkcliente": "67013246",
      "fkuser": "229426",
      "fkcorre": "222044",
      "dataate": "2019-11-28T09:29:02-03:00",
      "atendido": "0",
      "observacli": "Imóvel Web:\r\nCLIENTE DESEJA RESPOSTA POR: Indiferente\r\n\r\nIMÓVEL: ST00002\r\n\r\nMENSAGEM:\r\nBom dia aceitam apartamento centro São Leopoldo no negócio?.\r\n\r\nentrei em contato com Saul proprietário do Sítio na Sta Rosa e o mesmo não aceita imóvel fora de Taquara, máxima Parobé, avisei pelo what's app a Silvana e me coloquei a disposição para oferecer outros, mas antes pedi que ela nos desse mais informações de como é o sítio que ela procura.",
      "avaliacli": "0",
      "paratime": "2019-11-28T10:09:51-03:00",
      "midia": "IMÓVEL WEB",
      "pretensao": "Venda SITIO, TAQUARA, RS, KM 4, valor entre R$ 324.000,00 e R$ 396.000,00, 2 dormitórios",
      "prioridade": "0"
    },
    {
      "fkempresa": "21756",
      "pkatende": "5952290",
      "fkcliente": "67033346",
      "fkuser": "229426",
      "fkcorre": "229426",
      "dataate": "2019-12-03T14:41:13-03:00",
      "atendido": "0",
      "observacli": "IMÓVEIS DE INTERESSE: \r\nTaq214",
      "avaliacli": "0",
      "paratime": "2019-12-03T14:41:13-03:00",
      "midia": "INTERNET",
      "prioridade": "0"
    },
    {
      "fkempresa": "21756",
      "pkatende": "5989324",
      "fkcliente": "67118015",
      "fkuser": "229426",
      "fkcorre": "229426",
      "dataate": "2019-12-19T10:15:21-03:00",
      "atendido": "1",
      "datacorre": "2020-02-17T11:09:37-03:00",
      "observacli": "MEU SITE:\r\nMENSAGEM:\r\nTenho 2 terrenos rua paris Parobé  93 mil cada a venda. Favor chamar whats pra pegar fotos . Grato",
      "avaliacli": "0",
      "paratime": "2020-02-17T11:09:37-03:00",
      "midia": "MEU SITE",
      "prioridade": "0"
    },
    {
      "fkempresa": "21756",
      "pkatende": "6023842",
      "fkcliente": "67158464",
      "fkuser": "229426",
      "fkcorre": "229426",
      "dataate": "2020-01-07T17:27:23-03:00",
      "atendido": "0",
      "observacli": "Imóvel Web:\r\nCLIENTE DESEJA RESPOSTA POR: Indiferente\r\n\r\nIMÓVEL: Taq407\r\n\r\nMENSAGEM:\r\nOlá, vi este imóvel no Imovelweb e gostaria de receber mais informações sobre o mesmo. Obrigado!.\r\n\r\nImóvel Web:\r\nCLIENTE DESEJA RESPOSTA POR: Indiferente\r\n\r\nIMÓVEL: CA00038\r\n\r\nMENSAGEM:\r\nOlá, vi este imóvel no Imovelweb e gostaria de receber mais informações sobre o mesmo. Obrigado!.\r\n\r\nImóvel Web:\r\nCLIENTE DESEJA RESPOSTA POR: Indiferente\r\n\r\nIMÓVEL: Taq494\r\n\r\nMENSAGEM:\r\nOlá, vi este imóvel no Imovelweb e gostaria de receber mais informações sobre o mesmo. Obrigado!.",
      "avaliacli": "0",
      "paratime": "2020-01-07T17:27:51-03:00",
      "midia": "IMÓVEL WEB",
      "pretensao": "Venda CASA, TAQUARA, RS, SANTA ROSA, valor entre R$ 90.000,00 e R$ 110.000,00, área entre 84,00 m² e 102,00 m², 2 dormitórios, 2 vagas",
      "prioridade": "0"
    },
    {
      "fkempresa": "21756",
      "pkatende": "6045369",
      "fkcliente": "67184785",
      "fkuser": "229426",
      "fkcorre": "229426",
      "dataate": "2020-01-13T15:41:31-03:00",
      "atendido": "0",
      "observacli": "Imóvel Web:\r\nCLIENTE DESEJA RESPOSTA POR: Indiferente\r\n\r\nIMÓVEL: DB52\r\n\r\nMENSAGEM:\r\nOlá, vi este imóvel no Imovelweb e gostaria de receber mais informações sobre o mesmo. Obrigado!.\r\n\r\nImóvel Web:\r\nCLIENTE DESEJA RESPOSTA POR: Indiferente\r\n\r\nIMÓVEL: Taq214\r\n\r\nMENSAGEM:\r\nOlá, vi este imóvel no Imovelweb e gostaria de receber mais informações sobre o mesmo. Obrigado!.",
      "avaliacli": "0",
      "paratime": "2020-01-13T15:43:40-03:00",
      "midia": "IMÓVEL WEB",
      "pretensao": "Venda CASA, PAROBÉ, RS, CENTRO, valor entre R$ 288.000,00 e R$ 352.000,00, área entre 89,00 m² e 107,00 m², 2 dormitórios, 1 vaga",
      "prioridade": "0"
    },
    {
      "fkempresa": "21756",
      "pkatende": "6045488",
      "fkcliente": "67184925",
      "fkuser": "229426",
      "fkcorre": "222044",
      "dataate": "2020-01-13T15:55:46-03:00",
      "atendido": "0",
      "observacli": "Imóvel Web:\r\nCLIENTE DESEJA RESPOSTA POR: Indiferente\r\n\r\nIMÓVEL: Taq464\r\n\r\nMENSAGEM:\r\nOlá, vi este imóvel no Imovelweb e gostaria de receber mais informações sobre o mesmo. Obrigado!.",
      "avaliacli": "0",
      "paratime": "2020-01-13T15:55:47-03:00",
      "midia": "IMÓVEL WEB",
      "pretensao": "Venda CASA, TORRES, RS, ITAPEVA, valor entre R$ 355.500,00 e R$ 434.500,00, área entre 180,00 m² e 220,00 m², 3 dormitórios, 2 vagas",
      "prioridade": "0"
    },
    {
      "fkempresa": "21756",
      "pkatende": "6108368",
      "fkcliente": "67312184",
      "fkuser": "229426",
      "fkcorre": "229426",
      "dataate": "2020-01-29T17:37:14-03:00",
      "atendido": "1",
      "datacorre": "2020-02-17T11:09:08-03:00",
      "observacli": "Imóvel Web:\r\nCLIENTE DESEJA RESPOSTA POR: Indiferente\r\n\r\nIMÓVEL: Taq333\r\n\r\nMENSAGEM:\r\nOlá, vi este imóvel no Imovelweb e gostaria de receber mais informações sobre o mesmo. Obrigado!.",
      "avaliacli": "0",
      "paratime": "2020-02-17T11:09:08-03:00",
      "midia": "IMÓVEL WEB",
      "pretensao": "Venda CASA, CAPÃO DA CANOA, RS, CAPÃO NORTE, valor entre R$ 270.000,00 e R$ 330.000,00, área entre 126,00 m² e 152,00 m², 3 dormitórios, 1 vaga",
      "prioridade": "0"
    },
    {
      "fkempresa": "21756",
      "pkatende": "6179902",
      "fkcliente": "67411625",
      "fkuser": "229426",
      "fkcorre": "222044",
      "dataate": "2020-03-12T16:11:43-03:00",
      "atendido": "0",
      "observacli": "MEU SITE:\r\nIMÓVEL: Taq022\r\n\r\nMENSAGEM:\r\nAgendar Visita (17/02/2020)\r\nBoa tarde, essa casa aceita troca por casa? Gostaríamos de ver ela pessoalmente. Obrigada att Bruna Beck",
      "avaliacli": "0",
      "paratime": "2020-03-12T16:11:43-03:00",
      "midia": "MEU SITE",
      "pretensao": "Venda CASA, TAQUARA, RS, FOGÃO GAÚCHO, valor entre R$ 342.000,00 e R$ 418.000,00, área entre 107,00 m² e 129,00 m², 2 dormitórios, 2 vagas",
      "prioridade": "0"
    },
    {
      "fkempresa": "21756",
      "pkatende": "6201578",
      "fkcliente": "67500078",
      "fkuser": "222044",
      "fkcorre": "222044",
      "dataate": "2020-02-22T10:46:28-03:00",
      "atendido": "0",
      "observacli": "Imóvel Web:\r\nCLIENTE DESEJA RESPOSTA POR: Indiferente\r\n\r\nIMÓVEL: Taq464\r\n\r\nMENSAGEM:\r\nMensagem.",
      "avaliacli": "0",
      "paratime": "2020-02-22T10:46:29-03:00",
      "midia": "IMÓVEL WEB",
      "pretensao": "Venda CASA, TORRES, RS, ITAPEVA, valor entre R$ 355.500,00 e R$ 434.500,00, área entre 180,00 m² e 220,00 m², 3 dormitórios, 2 vagas",
      "prioridade": "0"
    },
    {
      "fkempresa": "21756",
      "pkatende": "6201757",
      "fkcliente": "67500366",
      "fkuser": "229426",
      "fkcorre": "222044",
      "dataate": "2020-03-12T16:12:35-03:00",
      "atendido": "0",
      "observacli": "Imóvel Web:\r\nCLIENTE DESEJA RESPOSTA POR: Indiferente\r\n\r\nIMÓVEL: ST00002\r\n\r\nMENSAGEM:\r\nOlá, vi este imóvel no Imovelweb e gostaria de receber mais informações sobre o mesmo. Obrigado!.",
      "avaliacli": "0",
      "paratime": "2020-03-12T16:12:35-03:00",
      "midia": "IMÓVEL WEB",
      "pretensao": "Venda SITIO, TAQUARA, RS, KM 4, valor entre R$ 324.000,00 e R$ 396.000,00, 2 dormitórios",
      "prioridade": "0"
    },
    {
      "fkempresa": "21756",
      "pkatende": "6201778",
      "fkcliente": "67312184",
      "fkuser": "222044",
      "fkcorre": "229426",
      "dataate": "2020-02-22T13:22:02-03:00",
      "atendido": "1",
      "datacorre": "2020-03-12T16:11:19-03:00",
      "observacli": "Imóvel Web:\r\nCLIENTE DESEJA RESPOSTA POR: Indiferente\r\n\r\nIMÓVEL: Taq333\r\n\r\nMENSAGEM:\r\nOlá, vi este imóvel no Imovelweb e gostaria de receber mais informações sobre o mesmo. Obrigado! Gostaria de saber qual a localizacao deste imovel, se fica perto do centro de capão.",
      "avaliacli": "0",
      "paratime": "2020-03-12T16:11:19-03:00",
      "midia": "IMÓVEL WEB",
      "pretensao": "Venda CASA, CAPÃO DA CANOA, RS, CAPÃO NORTE, valor entre R$ 270.000,00 e R$ 330.000,00, área entre 126,00 m² e 152,00 m², 3 dormitórios, 1 vaga",
      "prioridade": "0"
    },
    {
      "fkempresa": "21756",
      "pkatende": "6201779",
      "fkcliente": "67500399",
      "fkuser": "222044",
      "fkcorre": "222044",
      "dataate": "2020-02-22T13:22:11-03:00",
      "atendido": "0",
      "observacli": "Imóvel Web:\r\nCLIENTE DESEJA RESPOSTA POR: Indiferente\r\n\r\nIMÓVEL: Taq464\r\n\r\nMENSAGEM:\r\nOlá, vi este imóvel no Imovelweb e gostaria de receber mais informações sobre o mesmo. Obrigado! Hola tiene escritura publica.. a cuanto de Ia playa de guarita o praia da cal se encuentra. obrigado. .",
      "avaliacli": "0",
      "paratime": "2020-02-22T13:22:12-03:00",
      "midia": "IMÓVEL WEB",
      "pretensao": "Venda CASA, TORRES, RS, ITAPEVA, valor entre R$ 355.500,00 e R$ 434.500,00, área entre 180,00 m² e 220,00 m², 3 dormitórios, 2 vagas",
      "prioridade": "0"
    },
    {
      "fkempresa": "21756",
      "pkatende": "6252071",
      "fkcliente": "67581233",
      "fkuser": "229426",
      "fkcorre": "229426",
      "dataate": "2020-03-09T15:06:59-03:00",
      "atendido": "0",
      "observacli": "Imóvel Web:\r\nCLIENTE DESEJA RESPOSTA POR: Indiferente\r\n\r\nIMÓVEL: CA00036\r\n\r\nMENSAGEM:\r\nOlá, vi este imóvel no Imovelweb e gostaria de receber mais informações sobre o mesmo. Obrigado!.",
      "avaliacli": "0",
      "paratime": "2020-03-09T15:07:00-03:00",
      "midia": "IMÓVEL WEB",
      "pretensao": "Venda CASA, TAQUARA, RS, JARDIM DO PRADO, valor entre R$ 720.000,00 e R$ 880.000,00, área entre 172,00 m² e 210,00 m², 4 dormitórios, 4 vagas",
      "prioridade": "0"
    },
    {
      "fkempresa": "21756",
      "pkatende": "6264391",
      "fkcliente": "67621264",
      "fkuser": "229426",
      "fkcorre": "229426",
      "dataate": "2020-03-12T16:07:29-03:00",
      "atendido": "0",
      "observacli": "PERFIL DE INTERESSE: \r\nVenda TERRENO, Taquara, RS",
      "avaliacli": "0",
      "paratime": "2020-03-12T16:07:29-03:00",
      "midia": "INTERNET",
      "pretensao": "Venda TERRENO, Taquara, RS",
      "prioridade": "0"
    },
    {
      "fkempresa": "21756",
      "pkatende": "6264399",
      "fkcliente": "67621281",
      "fkuser": "229426",
      "fkcorre": "229426",
      "dataate": "2020-03-12T16:10:02-03:00",
      "atendido": "4",
      "observacli": "PERFIL DE INTERESSE: \r\nVenda TERRENO, Taquara, RS",
      "avaliacli": "0",
      "paratime": "2020-03-13T15:41:28-03:00",
      "midia": "INTERNET",
      "pretensao": "Venda TERRENO, Taquara, RS",
      "prioridade": "0"
    },
    {
      "fkempresa": "21756",
      "pkatende": "6377525",
      "fkcliente": "67874065",
      "fkuser": "229426",
      "fkcorre": "229426",
      "dataate": "2020-05-04T15:03:25-03:00",
      "atendido": "0",
      "observacli": "Imóvel Web:\r\nCLIENTE DESEJA RESPOSTA POR: Indiferente\r\n\r\nIMÓVEL: ST00006\r\n\r\nMENSAGEM:\r\nGostaria de mais informações. Favor entrar em contato. 51 982286668.",
      "avaliacli": "0",
      "paratime": "2020-05-04T15:03:26-03:00",
      "midia": "IMÓVEL WEB",
      "pretensao": "Venda SITIO, SÃO FRANCISCO DE PAULA, RS, SÃO BERNARDO, valor entre R$ 225.000,00 e R$ 275.000,00, 2 dormitórios",
      "prioridade": "0"
    },
    {
      "fkempresa": "21756",
      "pkatende": "6378131",
      "fkcliente": "67874879",
      "fkuser": "229426",
      "fkcorre": "229426",
      "dataate": "2020-05-04T16:45:06-03:00",
      "atendido": "0",
      "observacli": "Imóvel Web:\r\nCLIENTE DESEJA RESPOSTA POR: Indiferente\r\n\r\nIMÓVEL: ST00006\r\n\r\nMENSAGEM:\r\nOlá, vi este imóvel no Imovelweb e gostaria de receber mais informações sobre o mesmo. Obrigado!.",
      "avaliacli": "0",
      "paratime": "2020-05-04T16:45:07-03:00",
      "midia": "IMÓVEL WEB",
      "pretensao": "Venda SITIO, SÃO FRANCISCO DE PAULA, RS, SÃO BERNARDO, valor entre R$ 225.000,00 e R$ 275.000,00, 2 dormitórios",
      "prioridade": "0"
    },
    {
      "fkempresa": "21756",
      "pkatende": "6378133",
      "fkcliente": "67874881",
      "fkuser": "229426",
      "fkcorre": "229426",
      "dataate": "2020-05-04T16:45:18-03:00",
      "atendido": "0",
      "observacli": "Imóvel Web:\r\nCLIENTE DESEJA RESPOSTA POR: Indiferente\r\n\r\nIMÓVEL: ST00006\r\n\r\nMENSAGEM:\r\nOlá, vi este imóvel no Imovelweb e gostaria de receber mais informações sobre o mesmo. Obrigado!.",
      "avaliacli": "0",
      "paratime": "2020-05-04T16:45:19-03:00",
      "midia": "IMÓVEL WEB",
      "pretensao": "Venda SITIO, SÃO FRANCISCO DE PAULA, RS, SÃO BERNARDO, valor entre R$ 225.000,00 e R$ 275.000,00, 2 dormitórios",
      "prioridade": "0"
    }
  ]