[
    {
      "pkcadempre": "44026",
      "fkempresa": "21756",
      "nome": "Loteamento Novo Bom Princípio",
      "endereco": "RUA OSCAR FERREIRA DE JESUS",
      "numero": "596",
      "cep": "95500000",
      "bairro": "BOM PRINCÍPIO",
      "fase": "8",
      "ano": "2019",
      "constru": "35089",
      "cidade": "SANTO ANTÔNIO DA PATRULHA",
      "estado": "RS",
      "tipo": "200168",
      "subtipo": "61308",
      "categoria": "99680",
      "principalvenda": "1",
      "principallocalacao": "0",
      "principaldescricao": "O Loteamento Novo Bom Princípio está localizado na Rua Oscar Ferreira de Jesus, nº 596, no tradicional Bairro Bom Princípio, próximo ao comércio local, escolas e posto de saúde.\r\nContando com o melhor custo-benefício da cidade, ótima topografia e completa infraestrutura urbana, o empreendimento é sucesso de vendas.\r\n\r\nLotes a partir de 250 m².\r\n\r\nÁrea do empreendimento: 62.992,50 m².\r\n\r\nLotes: 143",
      "principalemail": "diego@vivaurbanismo.com.br",
      "principaldddtelefone": "54",
      "principaltelefone": "3286-7786",
      "principalunidades": "20",
      "principalvalvenda": "40900",
      "detalheareatotal": "62992.5",
      "detalheareaterreno": "250",
      "detalhemedida": "M2",
      "detalheplayground": "0",
      "detalhequadrasquash": "0",
      "detalhechurrasqueira": "0",
      "detalhequadratenis": "0",
      "detalhequadrapoli": "0",
      "detalheentcaminhoes": "0",
      "detalheagua": "1",
      "detalheesgoto": "1",
      "detalheresagua": "0",
      "detalheestasfaltada": "0",
      "detalherestaurante": "0",
      "detalhefrentemar": "0",
      "detalhepiscina": "0",
      "detalhepiscinfantil": "0",
      "detalhepiscaquecida": "0",
      "detalheestvisitante": "0",
      "detalhesalaginastica": "0",
      "detalhesalaojogos": "0",
      "detalhesauna": "0",
      "detalhepomar": "0",
      "detalhegourmet": "0",
      "detalhesalaestudo": "0",
      "detalhesaladescanso": "0",
      "detalhespa": "0",
      "detalhelounge": "0",
      "detalhebrinquedoteca": "0",
      "detalhefraldario": "0",
      "detalhefornopp": "0",
      "detalheespmulher": "0",
      "detalhevestiario": "0",
      "detalhesolarium": "0",
      "detalhelavabo": "0",
      "detalhedog": "0",
      "detalhefitness": "0",
      "paratime": "2019-08-08T12:00:44-03:00",
      "ultimasunidades": "1",
      "pubdestaque": "1",
      "situacao": "0",
      "detalhequadrapolicob": "0",
      "detalhefutareia": "0",
      "detalhevoleipraia": "0",
      "detalheconveniencia": "0",
      "detalhecascata": "0",
      "detalhelual": "0",
      "detalhecercaelet": "0",
      "detalhemeditacao": "0",
      "detalhelago": "0",
      "detalhepraca": "0",
      "detalhepraiaart": "0",
      "detalheheliporto": "0",
      "detalhesaunaseca": "0",
      "detalhecampogolf": "0",
      "detalheboliche": "0",
      "detalheofuro": "0",
      "detalhelanhouse": "0",
      "detalhebocha": "0",
      "detalhecinema": "0",
      "detalhealarmemoni": "0",
      "detalhemarina": "0",
      "detalhemusichall": "0",
      "detalhehealthy": "0",
      "detalhequiosque": "0",
      "detalhecircuitotv": "0",
      "detalhedeposito": "0",
      "detalheedicula": "0",
      "detalhegascentral": "0",
      "detalhegradil": "0",
      "detalheinterfone": "0",
      "detalheportaoelet": "0",
      "detalhepilotis": "0",
      "detalheportaria": "0",
      "detalheportaria24h": "0",
      "detalheseguranca": "0",
      "detalheterraco": "0",
      "detalhezelador": "0",
      "detalheelevadorsem": "0",
      "detalhesensorpres": "0",
      "principalesquina": "0",
      "docmatricula": "23775",
      "detalheporcelanato": "0",
      "detalhepisofrio": "0",
      "detalhegranito": "0",
      "detalhemarmore": "0",
      "detalhemadeira": "0",
      "detalhehalldecorado": "0",
      "detalhegaragembarco": "0",
      "detalheseguranca24hs": "0",
      "detalheentradavis": "0",
      "detalhejardim": "0",
      "detalhepiscinaraia": "0",
      "detalhebar": "0",
      "detalhequadrateniscob": "0",
      "detalhecampofutebol": "0",
      "detalhefrentepraca": "0",
      "detalhefrenteshop": "0",
      "detalhefrentesupm": "0",
      "detalhefrenteav": "0",
      "detalhemuro": "0",
      "detalheespelhodagua": "0",
      "detalhepraiapriv": "0",
      "detalhehallentrada": "0",
      "principaltotalunidades": "143",
      "locallatitude": "-29.82310886",
      "locallongitude": "-50.5353218",
      "principalcondominio": "0",
      "pais": "Brasil"
    },
    {
      "pkcadempre": "45227",
      "fkempresa": "21756",
      "nome": "Prado Residence Club",
      "endereco": "RUA TENENTE PORTELA",
      "numero": "2050",
      "cep": "95600450",
      "bairro": "JARDIM DO PRADO",
      "fase": "10",
      "ano": "2019",
      "cidade": "TAQUARA",
      "estado": "RS",
      "tipo": "200166",
      "subtipo": "61308",
      "categoria": "116817",
      "principalvenda": "1",
      "principallocalacao": "0",
      "principaldescricao": "Um lar, um clube, um parque. Imagine viver ou investir em um empreendimento perto de tudo, que traz tecnologia e inovação para o seu dia-a-dia. Desenvolvido e pensado para você ter conforto... e mais tempo: mais tempo para a carreira, mais tempo para a família, mais tempo para você.\r\n\r\nTempo para um churrasco com os amigos. Tempo para ver o dia amanhecer. Tempo para aproveitar o pôr do Sol. Um lugar para deixar o carro em casa e ir de bicicleta para o trabalho. Um lugar que gera energia limpa e sustentável. Um lugar com estrutura de um clube, com piscina, salão de festas e espaços gourmet.\r\n\r\nE tudo isso perto de um parque, para você criar mais momentos inesquecíveis.\r\n\r\nBem-vindo ao Prado Residence Club.\r\n\r\n#PISCINA\r\n#SALÃO DE FESTAS\r\n#BAR MOLHADO\r\n#SOLARIUM\r\n#ESPAÇOS GOURMET\r\n#CHIMARRÓDROMO\r\n#BICLETÁRIO\r\n#PLAYGROUND\r\n#ELEVADOR\r\n#POSSIBILIDADE DE PERSONALIZAÇÃO\r\n#POSSIBILIDADE DE VAGA DUPLA\r\n#ESPERAS PARA ÁGUA QUENTE\r\n#ACESSO DIGITAL\r\n#ESCADAS COM CONTADOR DE CALORIAS\r\n#CAPTAÇÃO DE ÁGUA DA CHUVA\r\n#CAPTAÇÃO DE ENERGIA SOLAR",
      "principalunidades": "1",
      "principalvalvenda": "169258.72",
      "detalheareatotal": "80.76",
      "detalhemedida": "M2",
      "detalheplayground": "1",
      "detalhequadrasquash": "0",
      "detalhechurrasqueira": "1",
      "detalhequadratenis": "0",
      "detalhequadrapoli": "0",
      "detalheentcaminhoes": "0",
      "detalheagua": "1",
      "detalheesgoto": "1",
      "detalheresagua": "0",
      "detalheestasfaltada": "0",
      "detalherestaurante": "0",
      "detalhefrentemar": "0",
      "detalhepiscina": "1",
      "detalhepiscinfantil": "0",
      "detalhepiscaquecida": "0",
      "detalheestvisitante": "0",
      "detalhesalaginastica": "0",
      "detalhesalaojogos": "0",
      "detalhesauna": "0",
      "detalhepomar": "0",
      "detalhegourmet": "1",
      "detalhesalaestudo": "0",
      "detalhesaladescanso": "0",
      "detalhespa": "0",
      "detalhelounge": "0",
      "detalhebrinquedoteca": "0",
      "detalhefraldario": "0",
      "detalhefornopp": "0",
      "detalheespmulher": "0",
      "detalhevestiario": "0",
      "detalhesolarium": "1",
      "detalhelavabo": "0",
      "detalhedog": "0",
      "detalhefitness": "0",
      "paratime": "2020-03-11T16:58:23-03:00",
      "ultimasunidades": "1",
      "pubdestaque": "1",
      "situacao": "1",
      "detalhequadrapolicob": "0",
      "detalhefutareia": "0",
      "detalhevoleipraia": "0",
      "detalheconveniencia": "0",
      "detalhecascata": "0",
      "detalhelual": "0",
      "detalhecercaelet": "0",
      "detalhemeditacao": "0",
      "detalhelago": "0",
      "detalhepraca": "0",
      "detalhepraiaart": "0",
      "detalheheliporto": "0",
      "detalhesaunaseca": "0",
      "detalhecampogolf": "0",
      "detalheboliche": "0",
      "detalheofuro": "0",
      "detalhelanhouse": "0",
      "detalhebocha": "0",
      "detalhecinema": "0",
      "detalhealarmemoni": "0",
      "detalhemarina": "0",
      "detalhemusichall": "0",
      "detalhehealthy": "0",
      "detalhequiosque": "0",
      "detalhecircuitotv": "0",
      "detalhedeposito": "0",
      "detalheedicula": "0",
      "detalhegascentral": "0",
      "detalhegradil": "0",
      "detalheinterfone": "1",
      "detalheportaoelet": "1",
      "detalhepilotis": "0",
      "detalheportaria": "0",
      "detalheportaria24h": "0",
      "detalheseguranca": "0",
      "detalheterraco": "1",
      "detalhezelador": "0",
      "detalheelevadorsem": "0",
      "detalhesensorpres": "0",
      "principalesquina": "2",
      "docmatricula": "59.887",
      "detalheporcelanato": "0",
      "detalhepisofrio": "0",
      "detalhegranito": "0",
      "detalhemarmore": "0",
      "detalhemadeira": "0",
      "detalhehalldecorado": "0",
      "detalhegaragembarco": "0",
      "detalheseguranca24hs": "0",
      "detalheentradavis": "0",
      "detalhejardim": "0",
      "detalhepiscinaraia": "0",
      "detalhebar": "0",
      "detalhequadrateniscob": "0",
      "detalhecampofutebol": "0",
      "detalhefrentepraca": "0",
      "detalhefrenteshop": "0",
      "detalhefrentesupm": "0",
      "detalhefrenteav": "0",
      "detalhemuro": "1",
      "detalheespelhodagua": "0",
      "detalhepraiapriv": "0",
      "detalhehallentrada": "1",
      "principaltotalunidades": "40",
      "principalcondominio": "0",
      "pais": "Brasil",
      "dataent": "2022-06-30T00:00:00-03:00",
      "incol": "27507",
      "principalsite": "www.pradoresidenceclub.com.br",
      "detalheareautil": "63.48",
      "detalheareacomum": "17.28",
      "detalhesalaofesta": "1",
      "detalheelevador": "1",
      "detalheelevadorsoc": "1",
      "principalpadrao": "MÉDIO",
      "principallocalalizacao": "BOA",
      "detalhesalaofestaad": "1",
      "principalandares": "7",
      "principalkeywords": "prado residence club taquara",
      "principalvalcondominio": "180"
    },
    {
      "pkcadempre": "44039",
      "fkempresa": "21756",
      "nome": "Condomínio Parque da Figueira",
      "endereco": "RUA ANTÔNIO BRUNO KEHL",
      "numero": "609",
      "cep": "95650000",
      "bairro": "FIGUEIRA",
      "fase": "8",
      "constru": "35089",
      "cidade": "IGREJINHA",
      "estado": "RS",
      "tipo": "200168",
      "subtipo": "61308",
      "categoria": "99680",
      "principalvenda": "1",
      "principallocalacao": "0",
      "principaldescricao": "Viver em alto nível\r\n\r\nIgrejinha, RS.\r\n\r\nO Parque da Figueira é o primeiro Condomínio fechado de terrenos da cidade.\r\nLocalizado em área nobre, no alto da Rua Antônio Bruno Kehl, nº 609, possui completa infraestrutura urbana de segurança e lazer.\r\nCom apenas 54 lotes, proporcionará uma experiência inédita de privacidade e qualidade de vida a seus moradores.\r\n\r\n* Guarita com segurança 24 horas\r\n* Pórtico de acesso com cancelas automatizadas\r\n* Clube\r\n* Bar com parrilla\r\n* Salão de Festas\r\n* Sala de jogos \r\n* SPA \r\n* Piscina com borda infinita \r\n* Academia\r\n* Quadra poliesportiva oficial\r\n* Chimarródromo\r\n* Espaço Kids \r\n* Playground infantil\r\n* Sauna Seca \r\n* Espaço Gourmet com Lareira e Churrasqueira\r\n* Arborização e paisagismo\r\n* Rede elétrica padrão RGE\r\n* Lotes com topografia suave\r\n* e muito mais!\r\n\r\nTudo isso em meio à natureza em uma área nobre, a 5 minutos do centro de Igrejinha.\r\n\r\nLotes entre 302,41 m² e 680,30 m²\r\n\r\nÁrea do empreendimento: 28.076,23 m²\r\n\r\nLotes: 54",
      "principalunidades": "4",
      "principalvalvenda": "249900",
      "detalheareatotal": "28076.23",
      "detalheareaterreno": "330",
      "detalhemedida": "M2",
      "detalheplayground": "1",
      "detalhequadrasquash": "0",
      "detalhechurrasqueira": "1",
      "detalhequadratenis": "0",
      "detalhequadrapoli": "1",
      "detalheentcaminhoes": "0",
      "detalheagua": "1",
      "detalheesgoto": "1",
      "detalheresagua": "0",
      "detalheestasfaltada": "0",
      "detalherestaurante": "0",
      "detalhefrentemar": "0",
      "detalhepiscina": "1",
      "detalhepiscinfantil": "0",
      "detalhepiscaquecida": "0",
      "detalheestvisitante": "0",
      "detalhesalaginastica": "0",
      "detalhesalaojogos": "1",
      "detalhesauna": "0",
      "detalhepomar": "0",
      "detalhegourmet": "1",
      "detalhesalaestudo": "0",
      "detalhesaladescanso": "0",
      "detalhespa": "1",
      "detalhelounge": "0",
      "detalhebrinquedoteca": "0",
      "detalhefraldario": "0",
      "detalhefornopp": "0",
      "detalheespmulher": "0",
      "detalhevestiario": "0",
      "detalhesolarium": "0",
      "detalhelavabo": "0",
      "detalhedog": "0",
      "detalhefitness": "1",
      "paratime": "2020-03-11T17:00:40-03:00",
      "ultimasunidades": "1",
      "pubdestaque": "1",
      "situacao": "1",
      "detalhequadrapolicob": "0",
      "detalhefutareia": "0",
      "detalhevoleipraia": "0",
      "detalheconveniencia": "0",
      "detalhecascata": "0",
      "detalhelual": "0",
      "detalhecercaelet": "0",
      "detalhemeditacao": "0",
      "detalhelago": "0",
      "detalhepraca": "0",
      "detalhepraiaart": "0",
      "detalheheliporto": "0",
      "detalhesaunaseca": "1",
      "detalhecampogolf": "0",
      "detalheboliche": "0",
      "detalheofuro": "0",
      "detalhelanhouse": "0",
      "detalhebocha": "0",
      "detalhecinema": "0",
      "detalhealarmemoni": "0",
      "detalhemarina": "0",
      "detalhemusichall": "0",
      "detalhehealthy": "0",
      "detalhequiosque": "0",
      "detalhecircuitotv": "0",
      "detalhedeposito": "0",
      "detalheedicula": "0",
      "detalhegascentral": "0",
      "detalhegradil": "0",
      "detalheinterfone": "0",
      "detalheportaoelet": "1",
      "detalhepilotis": "0",
      "detalheportaria": "0",
      "detalheportaria24h": "1",
      "detalheseguranca": "1",
      "detalheterraco": "0",
      "detalhezelador": "0",
      "detalheelevadorsem": "0",
      "detalhesensorpres": "0",
      "principalesquina": "0",
      "detalheporcelanato": "0",
      "detalhepisofrio": "0",
      "detalhegranito": "0",
      "detalhemarmore": "0",
      "detalhemadeira": "0",
      "detalhehalldecorado": "0",
      "detalhegaragembarco": "0",
      "detalheseguranca24hs": "1",
      "detalheentradavis": "0",
      "detalhejardim": "1",
      "detalhepiscinaraia": "0",
      "detalhebar": "0",
      "detalhequadrateniscob": "0",
      "detalhecampofutebol": "0",
      "detalhefrentepraca": "0",
      "detalhefrenteshop": "0",
      "detalhefrentesupm": "0",
      "detalhefrenteav": "0",
      "detalhemuro": "1",
      "detalheespelhodagua": "0",
      "detalhepraiapriv": "0",
      "detalhehallentrada": "0",
      "principaltotalunidades": "54",
      "locallatitude": "-29.5580461",
      "locallongitude": "-50.7975164",
      "principalcondominio": "1",
      "pais": "Brasil",
      "detalhesalaofesta": "2",
      "principalpadrao": "ALTO",
      "principallocalalizacao": "ÓTIMA",
      "detalhesalaofestaad": "1",
      "detalhesalaofestainf": "1"
    },
    {
      "pkcadempre": "44031",
      "fkempresa": "21756",
      "nome": "Vila do Cedro Residencial",
      "endereco": "RUA SANTO ÂNGELO",
      "numero": "37",
      "cep": "95680000",
      "bairro": "VILA MAGGI",
      "fase": "8",
      "ano": "2019",
      "constru": "35089",
      "cidade": "CANELA",
      "estado": "RS",
      "tipo": "200166",
      "subtipo": "61308",
      "categoria": "116817",
      "principalvenda": "1",
      "principallocalacao": "0",
      "principaldescricao": "Vila do Cedro Residencial\r\n\r\nPensado nos mínimos detalhes, do acabamento ao canto dos pássaros, numa área tranquila, segura e próxima ao centro da cidade de Canela.\r\nO Vila do Cedro é o lugar ideal para criar as melhores lembranças ao lado da sua família.\r\n\r\n* Apartamentos de 1 e 2 dormitórios (opção de 2 vagas de garagem);\r\n* Esquadrias em PVC;\r\n* Churrasqueira e espera para lareira;\r\n* Espera para ar condicionado tipo \"split\" nos dormitórios e estar/jantar.\r\n\r\nApartamentos com áreas de 48,60 m² a 120,94 m² privativos\r\n\r\nÁrea total construída: 2.158 m²",
      "principalemail": "diego@vivaurbanismo.com.br",
      "principaldddtelefone": "51",
      "principaltelefone": "99941-2260",
      "principalunidades": "0",
      "principalvalvenda": "404900",
      "detalheareatotal": "2158",
      "detalheareaterreno": "889.8",
      "detalhemedida": "M2",
      "detalheplayground": "0",
      "detalhequadrasquash": "0",
      "detalhechurrasqueira": "0",
      "detalhequadratenis": "0",
      "detalhequadrapoli": "0",
      "detalheentcaminhoes": "0",
      "detalheagua": "1",
      "detalheesgoto": "1",
      "detalheresagua": "0",
      "detalheestasfaltada": "0",
      "detalherestaurante": "0",
      "detalhefrentemar": "0",
      "detalhepiscina": "0",
      "detalhepiscinfantil": "0",
      "detalhepiscaquecida": "0",
      "detalheestvisitante": "0",
      "detalhesalaginastica": "0",
      "detalhesalaojogos": "0",
      "detalhesauna": "0",
      "detalhepomar": "0",
      "detalhegourmet": "0",
      "detalhesalaestudo": "0",
      "detalhesaladescanso": "0",
      "detalhespa": "0",
      "detalhelounge": "0",
      "detalhebrinquedoteca": "0",
      "detalhefraldario": "0",
      "detalhefornopp": "0",
      "detalheespmulher": "0",
      "detalhevestiario": "0",
      "detalhesolarium": "0",
      "detalhelavabo": "0",
      "detalhedog": "0",
      "detalhefitness": "0",
      "paratime": "2020-11-30T19:43:07-03:00",
      "ultimasunidades": "1",
      "pubdestaque": "1",
      "situacao": "2",
      "detalhequadrapolicob": "0",
      "detalhefutareia": "0",
      "detalhevoleipraia": "0",
      "detalheconveniencia": "0",
      "detalhecascata": "0",
      "detalhelual": "0",
      "detalhecercaelet": "0",
      "detalhemeditacao": "0",
      "detalhelago": "0",
      "detalhepraca": "0",
      "detalhepraiaart": "0",
      "detalheheliporto": "0",
      "detalhesaunaseca": "0",
      "detalhecampogolf": "0",
      "detalheboliche": "0",
      "detalheofuro": "0",
      "detalhelanhouse": "0",
      "detalhebocha": "0",
      "detalhecinema": "0",
      "detalhealarmemoni": "0",
      "detalhemarina": "0",
      "detalhemusichall": "0",
      "detalhehealthy": "0",
      "detalhequiosque": "0",
      "detalhecircuitotv": "0",
      "detalhedeposito": "0",
      "detalheedicula": "0",
      "detalhegascentral": "1",
      "detalhegradil": "0",
      "detalheinterfone": "1",
      "detalheportaoelet": "0",
      "detalhepilotis": "0",
      "detalheportaria": "0",
      "detalheportaria24h": "0",
      "detalheseguranca": "0",
      "detalheterraco": "0",
      "detalhezelador": "0",
      "detalheelevadorsem": "0",
      "detalhesensorpres": "0",
      "principalesquina": "0",
      "detalheporcelanato": "0",
      "detalhepisofrio": "0",
      "detalhegranito": "0",
      "detalhemarmore": "0",
      "detalhemadeira": "0",
      "detalhehalldecorado": "1",
      "detalhegaragembarco": "0",
      "detalheseguranca24hs": "0",
      "detalheentradavis": "0",
      "detalhejardim": "0",
      "detalhepiscinaraia": "0",
      "detalhebar": "0",
      "detalhequadrateniscob": "0",
      "detalhecampofutebol": "0",
      "detalhefrentepraca": "0",
      "detalhefrenteshop": "0",
      "detalhefrentesupm": "0",
      "detalhefrenteav": "0",
      "detalhemuro": "0",
      "detalheespelhodagua": "0",
      "detalhepraiapriv": "0",
      "detalhehallentrada": "1",
      "principaltotalunidades": "18",
      "locallatitude": "-29.3715524",
      "locallongitude": "-50.8038342",
      "principalcondominio": "0",
      "pais": "Brasil",
      "incol": "27487",
      "detalheelevador": "1",
      "detalheelevadorsoc": "1",
      "principalpadrao": "ALTO",
      "principallocalalizacao": "ÓTIMA",
      "principalandares": "6",
      "detalheareaconst": "2158",
      "fkmoeda": "76252"
    }
  ]